%!PS-Adobe-2.0 EPSF-2.0
%%Title: espec.tex
%%Creator: gnuplot 5.0 patchlevel 3
%%CreationDate: Tue May 17 02:44:38 2016
%%DocumentFonts: 
%%BoundingBox: 50 50 518 424
%%EndComments
%%BeginProlog
/gnudict 256 dict def
gnudict begin
%
% The following true/false flags may be edited by hand if desired.
% The unit line width and grayscale image gamma correction may also be changed.
%
/Color true def
/Blacktext false def
/Solid false def
/Dashlength 1 def
/Landscape false def
/Level1 false def
/Level3 false def
/Rounded false def
/ClipToBoundingBox false def
/SuppressPDFMark false def
/TransparentPatterns false def
/gnulinewidth 5.000 def
/userlinewidth gnulinewidth def
/Gamma 1.0 def
/BackgroundColor {-1.000 -1.000 -1.000} def
%
/vshift -73 def
/dl1 {
  10.0 Dashlength userlinewidth gnulinewidth div mul mul mul
  Rounded { currentlinewidth 0.75 mul sub dup 0 le { pop 0.01 } if } if
} def
/dl2 {
  10.0 Dashlength userlinewidth gnulinewidth div mul mul mul
  Rounded { currentlinewidth 0.75 mul add } if
} def
/hpt_ 31.5 def
/vpt_ 31.5 def
/hpt hpt_ def
/vpt vpt_ def
/doclip {
  ClipToBoundingBox {
    newpath 50 50 moveto 518 50 lineto 518 424 lineto 50 424 lineto closepath
    clip
  } if
} def
%
% Gnuplot Prolog Version 5.1 (Oct 2015)
%
%/SuppressPDFMark true def
%
/M {moveto} bind def
/L {lineto} bind def
/R {rmoveto} bind def
/V {rlineto} bind def
/N {newpath moveto} bind def
/Z {closepath} bind def
/C {setrgbcolor} bind def
/f {rlineto fill} bind def
/g {setgray} bind def
/Gshow {show} def   % May be redefined later in the file to support UTF-8
/vpt2 vpt 2 mul def
/hpt2 hpt 2 mul def
/Lshow {currentpoint stroke M 0 vshift R 
	Blacktext {gsave 0 setgray textshow grestore} {textshow} ifelse} def
/Rshow {currentpoint stroke M dup stringwidth pop neg vshift R
	Blacktext {gsave 0 setgray textshow grestore} {textshow} ifelse} def
/Cshow {currentpoint stroke M dup stringwidth pop -2 div vshift R 
	Blacktext {gsave 0 setgray textshow grestore} {textshow} ifelse} def
/UP {dup vpt_ mul /vpt exch def hpt_ mul /hpt exch def
  /hpt2 hpt 2 mul def /vpt2 vpt 2 mul def} def
/DL {Color {setrgbcolor Solid {pop []} if 0 setdash}
 {pop pop pop 0 setgray Solid {pop []} if 0 setdash} ifelse} def
/BL {stroke userlinewidth 2 mul setlinewidth
	Rounded {1 setlinejoin 1 setlinecap} if} def
/AL {stroke userlinewidth 2 div setlinewidth
	Rounded {1 setlinejoin 1 setlinecap} if} def
/UL {dup gnulinewidth mul /userlinewidth exch def
	dup 1 lt {pop 1} if 10 mul /udl exch def} def
/PL {stroke userlinewidth setlinewidth
	Rounded {1 setlinejoin 1 setlinecap} if} def
3.8 setmiterlimit
% Classic Line colors (version 5.0)
/LCw {1 1 1} def
/LCb {0 0 0} def
/LCa {0 0 0} def
/LC0 {1 0 0} def
/LC1 {0 1 0} def
/LC2 {0 0 1} def
/LC3 {1 0 1} def
/LC4 {0 1 1} def
/LC5 {1 1 0} def
/LC6 {0 0 0} def
/LC7 {1 0.3 0} def
/LC8 {0.5 0.5 0.5} def
% Default dash patterns (version 5.0)
/LTB {BL [] LCb DL} def
/LTw {PL [] 1 setgray} def
/LTb {PL [] LCb DL} def
/LTa {AL [1 udl mul 2 udl mul] 0 setdash LCa setrgbcolor} def
/LT0 {PL [] LC0 DL} def
/LT1 {PL [2 dl1 3 dl2] LC1 DL} def
/LT2 {PL [1 dl1 1.5 dl2] LC2 DL} def
/LT3 {PL [6 dl1 2 dl2 1 dl1 2 dl2] LC3 DL} def
/LT4 {PL [1 dl1 2 dl2 6 dl1 2 dl2 1 dl1 2 dl2] LC4 DL} def
/LT5 {PL [4 dl1 2 dl2] LC5 DL} def
/LT6 {PL [1.5 dl1 1.5 dl2 1.5 dl1 1.5 dl2 1.5 dl1 6 dl2] LC6 DL} def
/LT7 {PL [3 dl1 3 dl2 1 dl1 3 dl2] LC7 DL} def
/LT8 {PL [2 dl1 2 dl2 2 dl1 6 dl2] LC8 DL} def
/SL {[] 0 setdash} def
/Pnt {stroke [] 0 setdash gsave 1 setlinecap M 0 0 V stroke grestore} def
/Dia {stroke [] 0 setdash 2 copy vpt add M
  hpt neg vpt neg V hpt vpt neg V
  hpt vpt V hpt neg vpt V closepath stroke
  Pnt} def
/Pls {stroke [] 0 setdash vpt sub M 0 vpt2 V
  currentpoint stroke M
  hpt neg vpt neg R hpt2 0 V stroke
 } def
/Box {stroke [] 0 setdash 2 copy exch hpt sub exch vpt add M
  0 vpt2 neg V hpt2 0 V 0 vpt2 V
  hpt2 neg 0 V closepath stroke
  Pnt} def
/Crs {stroke [] 0 setdash exch hpt sub exch vpt add M
  hpt2 vpt2 neg V currentpoint stroke M
  hpt2 neg 0 R hpt2 vpt2 V stroke} def
/TriU {stroke [] 0 setdash 2 copy vpt 1.12 mul add M
  hpt neg vpt -1.62 mul V
  hpt 2 mul 0 V
  hpt neg vpt 1.62 mul V closepath stroke
  Pnt} def
/Star {2 copy Pls Crs} def
/BoxF {stroke [] 0 setdash exch hpt sub exch vpt add M
  0 vpt2 neg V hpt2 0 V 0 vpt2 V
  hpt2 neg 0 V closepath fill} def
/TriUF {stroke [] 0 setdash vpt 1.12 mul add M
  hpt neg vpt -1.62 mul V
  hpt 2 mul 0 V
  hpt neg vpt 1.62 mul V closepath fill} def
/TriD {stroke [] 0 setdash 2 copy vpt 1.12 mul sub M
  hpt neg vpt 1.62 mul V
  hpt 2 mul 0 V
  hpt neg vpt -1.62 mul V closepath stroke
  Pnt} def
/TriDF {stroke [] 0 setdash vpt 1.12 mul sub M
  hpt neg vpt 1.62 mul V
  hpt 2 mul 0 V
  hpt neg vpt -1.62 mul V closepath fill} def
/DiaF {stroke [] 0 setdash vpt add M
  hpt neg vpt neg V hpt vpt neg V
  hpt vpt V hpt neg vpt V closepath fill} def
/Pent {stroke [] 0 setdash 2 copy gsave
  translate 0 hpt M 4 {72 rotate 0 hpt L} repeat
  closepath stroke grestore Pnt} def
/PentF {stroke [] 0 setdash gsave
  translate 0 hpt M 4 {72 rotate 0 hpt L} repeat
  closepath fill grestore} def
/Circle {stroke [] 0 setdash 2 copy
  hpt 0 360 arc stroke Pnt} def
/CircleF {stroke [] 0 setdash hpt 0 360 arc fill} def
/C0 {BL [] 0 setdash 2 copy moveto vpt 90 450 arc} bind def
/C1 {BL [] 0 setdash 2 copy moveto
	2 copy vpt 0 90 arc closepath fill
	vpt 0 360 arc closepath} bind def
/C2 {BL [] 0 setdash 2 copy moveto
	2 copy vpt 90 180 arc closepath fill
	vpt 0 360 arc closepath} bind def
/C3 {BL [] 0 setdash 2 copy moveto
	2 copy vpt 0 180 arc closepath fill
	vpt 0 360 arc closepath} bind def
/C4 {BL [] 0 setdash 2 copy moveto
	2 copy vpt 180 270 arc closepath fill
	vpt 0 360 arc closepath} bind def
/C5 {BL [] 0 setdash 2 copy moveto
	2 copy vpt 0 90 arc
	2 copy moveto
	2 copy vpt 180 270 arc closepath fill
	vpt 0 360 arc} bind def
/C6 {BL [] 0 setdash 2 copy moveto
	2 copy vpt 90 270 arc closepath fill
	vpt 0 360 arc closepath} bind def
/C7 {BL [] 0 setdash 2 copy moveto
	2 copy vpt 0 270 arc closepath fill
	vpt 0 360 arc closepath} bind def
/C8 {BL [] 0 setdash 2 copy moveto
	2 copy vpt 270 360 arc closepath fill
	vpt 0 360 arc closepath} bind def
/C9 {BL [] 0 setdash 2 copy moveto
	2 copy vpt 270 450 arc closepath fill
	vpt 0 360 arc closepath} bind def
/C10 {BL [] 0 setdash 2 copy 2 copy moveto vpt 270 360 arc closepath fill
	2 copy moveto
	2 copy vpt 90 180 arc closepath fill
	vpt 0 360 arc closepath} bind def
/C11 {BL [] 0 setdash 2 copy moveto
	2 copy vpt 0 180 arc closepath fill
	2 copy moveto
	2 copy vpt 270 360 arc closepath fill
	vpt 0 360 arc closepath} bind def
/C12 {BL [] 0 setdash 2 copy moveto
	2 copy vpt 180 360 arc closepath fill
	vpt 0 360 arc closepath} bind def
/C13 {BL [] 0 setdash 2 copy moveto
	2 copy vpt 0 90 arc closepath fill
	2 copy moveto
	2 copy vpt 180 360 arc closepath fill
	vpt 0 360 arc closepath} bind def
/C14 {BL [] 0 setdash 2 copy moveto
	2 copy vpt 90 360 arc closepath fill
	vpt 0 360 arc} bind def
/C15 {BL [] 0 setdash 2 copy vpt 0 360 arc closepath fill
	vpt 0 360 arc closepath} bind def
/Rec {newpath 4 2 roll moveto 1 index 0 rlineto 0 exch rlineto
	neg 0 rlineto closepath} bind def
/Square {dup Rec} bind def
/Bsquare {vpt sub exch vpt sub exch vpt2 Square} bind def
/S0 {BL [] 0 setdash 2 copy moveto 0 vpt rlineto BL Bsquare} bind def
/S1 {BL [] 0 setdash 2 copy vpt Square fill Bsquare} bind def
/S2 {BL [] 0 setdash 2 copy exch vpt sub exch vpt Square fill Bsquare} bind def
/S3 {BL [] 0 setdash 2 copy exch vpt sub exch vpt2 vpt Rec fill Bsquare} bind def
/S4 {BL [] 0 setdash 2 copy exch vpt sub exch vpt sub vpt Square fill Bsquare} bind def
/S5 {BL [] 0 setdash 2 copy 2 copy vpt Square fill
	exch vpt sub exch vpt sub vpt Square fill Bsquare} bind def
/S6 {BL [] 0 setdash 2 copy exch vpt sub exch vpt sub vpt vpt2 Rec fill Bsquare} bind def
/S7 {BL [] 0 setdash 2 copy exch vpt sub exch vpt sub vpt vpt2 Rec fill
	2 copy vpt Square fill Bsquare} bind def
/S8 {BL [] 0 setdash 2 copy vpt sub vpt Square fill Bsquare} bind def
/S9 {BL [] 0 setdash 2 copy vpt sub vpt vpt2 Rec fill Bsquare} bind def
/S10 {BL [] 0 setdash 2 copy vpt sub vpt Square fill 2 copy exch vpt sub exch vpt Square fill
	Bsquare} bind def
/S11 {BL [] 0 setdash 2 copy vpt sub vpt Square fill 2 copy exch vpt sub exch vpt2 vpt Rec fill
	Bsquare} bind def
/S12 {BL [] 0 setdash 2 copy exch vpt sub exch vpt sub vpt2 vpt Rec fill Bsquare} bind def
/S13 {BL [] 0 setdash 2 copy exch vpt sub exch vpt sub vpt2 vpt Rec fill
	2 copy vpt Square fill Bsquare} bind def
/S14 {BL [] 0 setdash 2 copy exch vpt sub exch vpt sub vpt2 vpt Rec fill
	2 copy exch vpt sub exch vpt Square fill Bsquare} bind def
/S15 {BL [] 0 setdash 2 copy Bsquare fill Bsquare} bind def
/D0 {gsave translate 45 rotate 0 0 S0 stroke grestore} bind def
/D1 {gsave translate 45 rotate 0 0 S1 stroke grestore} bind def
/D2 {gsave translate 45 rotate 0 0 S2 stroke grestore} bind def
/D3 {gsave translate 45 rotate 0 0 S3 stroke grestore} bind def
/D4 {gsave translate 45 rotate 0 0 S4 stroke grestore} bind def
/D5 {gsave translate 45 rotate 0 0 S5 stroke grestore} bind def
/D6 {gsave translate 45 rotate 0 0 S6 stroke grestore} bind def
/D7 {gsave translate 45 rotate 0 0 S7 stroke grestore} bind def
/D8 {gsave translate 45 rotate 0 0 S8 stroke grestore} bind def
/D9 {gsave translate 45 rotate 0 0 S9 stroke grestore} bind def
/D10 {gsave translate 45 rotate 0 0 S10 stroke grestore} bind def
/D11 {gsave translate 45 rotate 0 0 S11 stroke grestore} bind def
/D12 {gsave translate 45 rotate 0 0 S12 stroke grestore} bind def
/D13 {gsave translate 45 rotate 0 0 S13 stroke grestore} bind def
/D14 {gsave translate 45 rotate 0 0 S14 stroke grestore} bind def
/D15 {gsave translate 45 rotate 0 0 S15 stroke grestore} bind def
/DiaE {stroke [] 0 setdash vpt add M
  hpt neg vpt neg V hpt vpt neg V
  hpt vpt V hpt neg vpt V closepath stroke} def
/BoxE {stroke [] 0 setdash exch hpt sub exch vpt add M
  0 vpt2 neg V hpt2 0 V 0 vpt2 V
  hpt2 neg 0 V closepath stroke} def
/TriUE {stroke [] 0 setdash vpt 1.12 mul add M
  hpt neg vpt -1.62 mul V
  hpt 2 mul 0 V
  hpt neg vpt 1.62 mul V closepath stroke} def
/TriDE {stroke [] 0 setdash vpt 1.12 mul sub M
  hpt neg vpt 1.62 mul V
  hpt 2 mul 0 V
  hpt neg vpt -1.62 mul V closepath stroke} def
/PentE {stroke [] 0 setdash gsave
  translate 0 hpt M 4 {72 rotate 0 hpt L} repeat
  closepath stroke grestore} def
/CircE {stroke [] 0 setdash 
  hpt 0 360 arc stroke} def
/Opaque {gsave closepath 1 setgray fill grestore 0 setgray closepath} def
/DiaW {stroke [] 0 setdash vpt add M
  hpt neg vpt neg V hpt vpt neg V
  hpt vpt V hpt neg vpt V Opaque stroke} def
/BoxW {stroke [] 0 setdash exch hpt sub exch vpt add M
  0 vpt2 neg V hpt2 0 V 0 vpt2 V
  hpt2 neg 0 V Opaque stroke} def
/TriUW {stroke [] 0 setdash vpt 1.12 mul add M
  hpt neg vpt -1.62 mul V
  hpt 2 mul 0 V
  hpt neg vpt 1.62 mul V Opaque stroke} def
/TriDW {stroke [] 0 setdash vpt 1.12 mul sub M
  hpt neg vpt 1.62 mul V
  hpt 2 mul 0 V
  hpt neg vpt -1.62 mul V Opaque stroke} def
/PentW {stroke [] 0 setdash gsave
  translate 0 hpt M 4 {72 rotate 0 hpt L} repeat
  Opaque stroke grestore} def
/CircW {stroke [] 0 setdash 
  hpt 0 360 arc Opaque stroke} def
/BoxFill {gsave Rec 1 setgray fill grestore} def
/Density {
  /Fillden exch def
  currentrgbcolor
  /ColB exch def /ColG exch def /ColR exch def
  /ColR ColR Fillden mul Fillden sub 1 add def
  /ColG ColG Fillden mul Fillden sub 1 add def
  /ColB ColB Fillden mul Fillden sub 1 add def
  ColR ColG ColB setrgbcolor} def
/BoxColFill {gsave Rec PolyFill} def
/PolyFill {gsave Density fill grestore grestore} def
/h {rlineto rlineto rlineto gsave closepath fill grestore} bind def
%
% PostScript Level 1 Pattern Fill routine for rectangles
% Usage: x y w h s a XX PatternFill
%	x,y = lower left corner of box to be filled
%	w,h = width and height of box
%	  a = angle in degrees between lines and x-axis
%	 XX = 0/1 for no/yes cross-hatch
%
/PatternFill {gsave /PFa [ 9 2 roll ] def
  PFa 0 get PFa 2 get 2 div add PFa 1 get PFa 3 get 2 div add translate
  PFa 2 get -2 div PFa 3 get -2 div PFa 2 get PFa 3 get Rec
  TransparentPatterns {} {gsave 1 setgray fill grestore} ifelse
  clip
  currentlinewidth 0.5 mul setlinewidth
  /PFs PFa 2 get dup mul PFa 3 get dup mul add sqrt def
  0 0 M PFa 5 get rotate PFs -2 div dup translate
  0 1 PFs PFa 4 get div 1 add floor cvi
	{PFa 4 get mul 0 M 0 PFs V} for
  0 PFa 6 get ne {
	0 1 PFs PFa 4 get div 1 add floor cvi
	{PFa 4 get mul 0 2 1 roll M PFs 0 V} for
 } if
  stroke grestore} def
%
/languagelevel where
 {pop languagelevel} {1} ifelse
dup 2 lt
	{/InterpretLevel1 true def
	 /InterpretLevel3 false def}
	{/InterpretLevel1 Level1 def
	 2 gt
	    {/InterpretLevel3 Level3 def}
	    {/InterpretLevel3 false def}
	 ifelse }
 ifelse
%
% PostScript level 2 pattern fill definitions
%
/Level2PatternFill {
/Tile8x8 {/PaintType 2 /PatternType 1 /TilingType 1 /BBox [0 0 8 8] /XStep 8 /YStep 8}
	bind def
/KeepColor {currentrgbcolor [/Pattern /DeviceRGB] setcolorspace} bind def
<< Tile8x8
 /PaintProc {0.5 setlinewidth pop 0 0 M 8 8 L 0 8 M 8 0 L stroke} 
>> matrix makepattern
/Pat1 exch def
<< Tile8x8
 /PaintProc {0.5 setlinewidth pop 0 0 M 8 8 L 0 8 M 8 0 L stroke
	0 4 M 4 8 L 8 4 L 4 0 L 0 4 L stroke}
>> matrix makepattern
/Pat2 exch def
<< Tile8x8
 /PaintProc {0.5 setlinewidth pop 0 0 M 0 8 L
	8 8 L 8 0 L 0 0 L fill}
>> matrix makepattern
/Pat3 exch def
<< Tile8x8
 /PaintProc {0.5 setlinewidth pop -4 8 M 8 -4 L
	0 12 M 12 0 L stroke}
>> matrix makepattern
/Pat4 exch def
<< Tile8x8
 /PaintProc {0.5 setlinewidth pop -4 0 M 8 12 L
	0 -4 M 12 8 L stroke}
>> matrix makepattern
/Pat5 exch def
<< Tile8x8
 /PaintProc {0.5 setlinewidth pop -2 8 M 4 -4 L
	0 12 M 8 -4 L 4 12 M 10 0 L stroke}
>> matrix makepattern
/Pat6 exch def
<< Tile8x8
 /PaintProc {0.5 setlinewidth pop -2 0 M 4 12 L
	0 -4 M 8 12 L 4 -4 M 10 8 L stroke}
>> matrix makepattern
/Pat7 exch def
<< Tile8x8
 /PaintProc {0.5 setlinewidth pop 8 -2 M -4 4 L
	12 0 M -4 8 L 12 4 M 0 10 L stroke}
>> matrix makepattern
/Pat8 exch def
<< Tile8x8
 /PaintProc {0.5 setlinewidth pop 0 -2 M 12 4 L
	-4 0 M 12 8 L -4 4 M 8 10 L stroke}
>> matrix makepattern
/Pat9 exch def
/Pattern1 {PatternBgnd KeepColor Pat1 setpattern} bind def
/Pattern2 {PatternBgnd KeepColor Pat2 setpattern} bind def
/Pattern3 {PatternBgnd KeepColor Pat3 setpattern} bind def
/Pattern4 {PatternBgnd KeepColor Landscape {Pat5} {Pat4} ifelse setpattern} bind def
/Pattern5 {PatternBgnd KeepColor Landscape {Pat4} {Pat5} ifelse setpattern} bind def
/Pattern6 {PatternBgnd KeepColor Landscape {Pat9} {Pat6} ifelse setpattern} bind def
/Pattern7 {PatternBgnd KeepColor Landscape {Pat8} {Pat7} ifelse setpattern} bind def
} def
%
%
%End of PostScript Level 2 code
%
/PatternBgnd {
  TransparentPatterns {} {gsave 1 setgray fill grestore} ifelse
} def
%
% Substitute for Level 2 pattern fill codes with
% grayscale if Level 2 support is not selected.
%
/Level1PatternFill {
/Pattern1 {0.250 Density} bind def
/Pattern2 {0.500 Density} bind def
/Pattern3 {0.750 Density} bind def
/Pattern4 {0.125 Density} bind def
/Pattern5 {0.375 Density} bind def
/Pattern6 {0.625 Density} bind def
/Pattern7 {0.875 Density} bind def
} def
%
% Now test for support of Level 2 code
%
Level1 {Level1PatternFill} {Level2PatternFill} ifelse
%
/Symbol-Oblique /Symbol findfont [1 0 .167 1 0 0] makefont
dup length dict begin {1 index /FID eq {pop pop} {def} ifelse} forall
currentdict end definefont pop
%
Level1 SuppressPDFMark or 
{} {
/SDict 10 dict def
systemdict /pdfmark known not {
  userdict /pdfmark systemdict /cleartomark get put
} if
SDict begin [
  /Title (espec.tex)
  /Subject (gnuplot plot)
  /Creator (gnuplot 5.0 patchlevel 3)
  /Author (william)
%  /Producer (gnuplot)
%  /Keywords ()
  /CreationDate (Tue May 17 02:44:38 2016)
  /DOCINFO pdfmark
end
} ifelse
%
% Support for boxed text - Ethan A Merritt May 2005
%
/InitTextBox { userdict /TBy2 3 -1 roll put userdict /TBx2 3 -1 roll put
           userdict /TBy1 3 -1 roll put userdict /TBx1 3 -1 roll put
	   /Boxing true def } def
/ExtendTextBox { Boxing
    { gsave dup false charpath pathbbox
      dup TBy2 gt {userdict /TBy2 3 -1 roll put} {pop} ifelse
      dup TBx2 gt {userdict /TBx2 3 -1 roll put} {pop} ifelse
      dup TBy1 lt {userdict /TBy1 3 -1 roll put} {pop} ifelse
      dup TBx1 lt {userdict /TBx1 3 -1 roll put} {pop} ifelse
      grestore } if } def
/PopTextBox { newpath TBx1 TBxmargin sub TBy1 TBymargin sub M
               TBx1 TBxmargin sub TBy2 TBymargin add L
	       TBx2 TBxmargin add TBy2 TBymargin add L
	       TBx2 TBxmargin add TBy1 TBymargin sub L closepath } def
/DrawTextBox { PopTextBox stroke /Boxing false def} def
/FillTextBox { gsave PopTextBox 1 1 1 setrgbcolor fill grestore /Boxing false def} def
0 0 0 0 InitTextBox
/TBxmargin 20 def
/TBymargin 20 def
/Boxing false def
/textshow { ExtendTextBox Gshow } def
%
% redundant definitions for compatibility with prologue.ps older than 5.0.2
/LTB {BL [] LCb DL} def
/LTb {PL [] LCb DL} def
end
%%EndProlog
%%Page: 1 1
gnudict begin
gsave
doclip
50 50 translate
0.050 0.050 scale
0 setgray
newpath
1.000 UL
LTb
LCb setrgbcolor
[] 0 setdash
1404 4700 M
63 0 V
3680 0 R
-63 0 V
stroke
LTb
1404 5282 M
63 0 V
3680 0 R
-63 0 V
stroke
1404 5865 M
63 0 V
3680 0 R
-63 0 V
stroke
1404 6447 M
63 0 V
3680 0 R
-63 0 V
stroke
1404 4118 M
0 63 V
0 2557 R
0 -63 V
stroke
2153 4118 M
0 63 V
0 2557 R
0 -63 V
stroke
2901 4118 M
0 63 V
0 2557 R
0 -63 V
stroke
3650 4118 M
0 63 V
0 2557 R
0 -63 V
stroke
4398 4118 M
0 63 V
0 2557 R
0 -63 V
stroke
5147 4118 M
0 63 V
0 2557 R
0 -63 V
stroke
1.000 UL
LTb
1404 6738 N
0 -2620 V
3743 0 V
0 2620 V
-3743 0 V
Z stroke
1.000 UP
1.000 UL
LTb
3.000 UL
LTb
0.00 0.62 0.45 C LCb setrgbcolor
3.000 UL
LTb
0.00 0.62 0.45 C 4292 6565 M
591 0 V
1404 4121 M
19 0 V
0 76 V
37 0 V
0 84 V
38 0 V
0 230 V
37 0 V
0 279 V
37 0 V
0 504 V
38 0 V
0 370 V
37 0 V
0 259 V
38 0 V
0 509 V
37 0 V
0 50 V
38 0 V
0 11 V
37 0 V
0 18 V
37 0 V
0 -239 V
38 0 V
0 -169 V
37 0 V
0 -247 V
38 0 V
0 -224 V
37 0 V
0 -233 V
38 0 V
0 -312 V
37 0 V
0 -253 V
37 0 V
0 -143 V
38 0 V
0 -26 V
37 0 V
0 -183 V
38 0 V
0 -50 V
37 0 V
0 -87 V
38 0 V
0 -67 V
37 0 V
0 -9 V
37 0 V
0 -20 V
38 0 V
0 -41 V
37 0 V
0 -14 V
38 0 V
0 26 V
37 0 V
0 -3 V
38 0 V
0 -47 V
37 0 V
0 24 V
37 0 V
0 -41 V
38 0 V
0 23 V
37 0 V
0 -26 V
38 0 V
0 3 V
37 0 V
0 -6 V
38 0 V
0 -20 V
37 0 V
0 3 V
37 0 V
0 8 V
38 0 V
37 0 V
0 -5 V
38 0 V
0 -6 V
37 0 V
38 0 V
0 -3 V
37 0 V
0 -6 V
37 0 V
0 6 V
38 0 V
0 -3 V
37 0 V
0 -3 V
38 0 V
0 6 V
37 0 V
0 -6 V
38 0 V
0 3 V
stroke 3332 4121 M
37 0 V
0 -3 V
38 0 V
37 0 V
37 0 V
38 0 V
37 0 V
38 0 V
37 0 V
38 0 V
37 0 V
37 0 V
38 0 V
37 0 V
38 0 V
37 0 V
38 0 V
37 0 V
37 0 V
38 0 V
37 0 V
38 0 V
37 0 V
38 0 V
37 0 V
37 0 V
38 0 V
37 0 V
38 0 V
37 0 V
38 0 V
37 0 V
37 0 V
38 0 V
37 0 V
38 0 V
37 0 V
38 0 V
37 0 V
37 0 V
38 0 V
37 0 V
38 0 V
37 0 V
38 0 V
37 0 V
37 0 V
38 0 V
37 0 V
stroke
2.000 UL
LTb
LCb setrgbcolor
[] 0 setdash
0.58 0.00 0.83 C LCb setrgbcolor
2.000 UL
LTb
0.58 0.00 0.83 C 4292 6345 M
591 0 V
1404 4118 M
38 64 V
38 183 V
37 281 V
38 346 V
38 373 V
38 360 V
38 312 V
37 235 V
38 142 V
38 44 V
38 -50 V
38 -129 V
38 -190 V
37 -231 V
38 -249 V
38 -251 V
38 -236 V
38 -214 V
37 -184 V
38 -153 V
38 -123 V
38 -95 V
38 -72 V
37 -53 V
38 -37 V
38 -26 V
38 -17 V
38 -12 V
37 -7 V
38 -4 V
38 -3 V
38 -2 V
38 -1 V
37 0 V
38 -1 V
38 0 V
38 0 V
38 0 V
38 0 V
37 0 V
38 0 V
38 0 V
38 0 V
38 0 V
37 0 V
38 0 V
38 0 V
38 0 V
38 0 V
37 0 V
38 0 V
38 0 V
38 0 V
38 0 V
37 0 V
38 0 V
38 0 V
38 0 V
38 0 V
37 0 V
38 0 V
38 0 V
38 0 V
38 0 V
38 0 V
37 0 V
38 0 V
38 0 V
38 0 V
38 0 V
37 0 V
38 0 V
38 0 V
38 0 V
38 0 V
37 0 V
38 0 V
38 0 V
38 0 V
38 0 V
37 0 V
38 0 V
38 0 V
38 0 V
38 0 V
37 0 V
38 0 V
38 0 V
38 0 V
38 0 V
38 0 V
37 0 V
38 0 V
38 0 V
38 0 V
38 0 V
37 0 V
38 0 V
38 0 V
stroke
LTb
LCb setrgbcolor
[] 0 setdash
1.000 UL
LTb
1404 6738 N
0 -2620 V
3743 0 V
0 2620 V
-3743 0 V
Z stroke
1.000 UP
1.000 UL
LTb
1.000 UL
LTb
5148 4700 M
63 0 V
3680 0 R
-63 0 V
stroke
5148 5282 M
63 0 V
3680 0 R
-63 0 V
stroke
5148 5865 M
63 0 V
3680 0 R
-63 0 V
stroke
5148 6447 M
63 0 V
3680 0 R
-63 0 V
stroke
5148 4118 M
0 63 V
0 2557 R
0 -63 V
stroke
5897 4118 M
0 63 V
0 2557 R
0 -63 V
stroke
6645 4118 M
0 63 V
0 2557 R
0 -63 V
stroke
7394 4118 M
0 63 V
0 2557 R
0 -63 V
stroke
8142 4118 M
0 63 V
0 2557 R
0 -63 V
stroke
8891 4118 M
0 63 V
0 2557 R
0 -63 V
stroke
1.000 UL
LTb
5148 6738 N
0 -2620 V
3743 0 V
0 2620 V
-3743 0 V
Z stroke
1.000 UP
1.000 UL
LTb
3.000 UL
LTb
0.00 0.62 0.45 C LCb setrgbcolor
3.000 UL
LTb
0.00 0.62 0.45 C 8036 6565 M
591 0 V
5148 4135 M
19 0 V
0 62 V
37 0 V
0 151 V
38 0 V
0 180 V
37 0 V
0 280 V
37 0 V
0 148 V
38 0 V
0 367 V
37 0 V
0 361 V
38 0 V
0 300 V
37 0 V
0 26 V
38 0 V
0 189 V
37 0 V
0 -52 V
37 0 V
0 20 V
38 0 V
0 -198 V
37 0 V
0 -267 V
38 0 V
0 -73 V
37 0 V
0 -90 V
38 0 V
0 -230 V
37 0 V
0 -149 V
37 0 V
0 -157 V
38 0 V
0 -35 V
37 0 V
0 -146 V
38 0 V
0 -107 V
37 0 V
0 -73 V
38 0 V
0 23 V
37 0 V
0 -163 V
37 0 V
0 -20 V
38 0 V
0 9 V
37 0 V
0 -15 V
38 0 V
0 -70 V
37 0 V
0 21 V
38 0 V
0 -18 V
37 0 V
0 -70 V
37 0 V
0 18 V
38 0 V
0 -35 V
37 0 V
0 -41 V
38 0 V
0 -29 V
37 0 V
0 17 V
38 0 V
0 -40 V
37 0 V
0 5 V
37 0 V
0 15 V
38 0 V
0 -12 V
37 0 V
0 -40 V
38 0 V
37 0 V
0 -15 V
38 0 V
0 -3 V
37 0 V
0 -12 V
37 0 V
0 -14 V
38 0 V
0 -12 V
37 0 V
0 24 V
38 0 V
0 -3 V
37 0 V
0 -15 V
38 0 V
stroke 7076 4147 M
0 -14 V
37 0 V
0 -9 V
38 0 V
37 0 V
37 0 V
0 3 V
38 0 V
0 -6 V
37 0 V
0 -3 V
38 0 V
0 9 V
37 0 V
0 -3 V
38 0 V
0 -3 V
37 0 V
0 -3 V
37 0 V
0 3 V
38 0 V
37 0 V
38 0 V
0 -3 V
37 0 V
38 0 V
0 3 V
37 0 V
0 -3 V
37 0 V
38 0 V
37 0 V
38 0 V
37 0 V
0 3 V
38 0 V
0 -3 V
37 0 V
37 0 V
38 0 V
37 0 V
38 0 V
37 0 V
38 0 V
37 0 V
37 0 V
38 0 V
37 0 V
38 0 V
37 0 V
38 0 V
37 0 V
37 0 V
38 0 V
37 0 V
38 0 V
37 0 V
38 0 V
37 0 V
37 0 V
38 0 V
37 0 V
stroke
2.000 UL
LTb
LCb setrgbcolor
[] 0 setdash
0.90 0.62 0.00 C LCb setrgbcolor
2.000 UL
LTb
0.90 0.62 0.00 C 8036 6345 M
591 0 V
5148 4118 M
38 43 V
38 126 V
37 196 V
38 249 V
38 280 V
38 286 V
38 270 V
37 232 V
38 180 V
38 117 V
38 50 V
38 -15 V
38 -73 V
37 -121 V
38 -158 V
38 -181 V
38 -192 V
38 -192 V
37 -184 V
38 -169 V
38 -151 V
38 -129 V
38 -108 V
37 -89 V
38 -70 V
38 -54 V
38 -42 V
38 -30 V
37 -23 V
38 -16 V
38 -11 V
38 -7 V
38 -5 V
37 -3 V
38 -3 V
38 -1 V
38 -1 V
38 0 V
38 -1 V
37 0 V
38 0 V
38 0 V
38 0 V
38 0 V
37 0 V
38 0 V
38 0 V
38 0 V
38 0 V
37 0 V
38 0 V
38 0 V
38 0 V
38 0 V
37 0 V
38 0 V
38 0 V
38 0 V
38 0 V
37 0 V
38 0 V
38 0 V
38 0 V
38 0 V
38 0 V
37 0 V
38 0 V
38 0 V
38 0 V
38 0 V
37 0 V
38 0 V
38 0 V
38 0 V
38 0 V
37 0 V
38 0 V
38 0 V
38 0 V
38 0 V
37 0 V
38 0 V
38 0 V
38 0 V
38 0 V
37 0 V
38 0 V
38 0 V
38 0 V
38 0 V
38 0 V
37 0 V
38 0 V
38 0 V
38 0 V
38 0 V
37 0 V
38 0 V
38 0 V
stroke
LTb
LCb setrgbcolor
[] 0 setdash
1.000 UL
LTb
5148 6738 N
0 -2620 V
3743 0 V
0 2620 V
-3743 0 V
Z stroke
1.000 UP
1.000 UL
LTb
1.000 UL
LTb
1404 2079 M
63 0 V
3680 0 R
-63 0 V
stroke
1404 2661 M
63 0 V
3680 0 R
-63 0 V
stroke
1404 3244 M
63 0 V
3680 0 R
-63 0 V
stroke
1404 3826 M
63 0 V
3680 0 R
-63 0 V
stroke
2153 1497 M
0 63 V
0 2557 R
0 -63 V
stroke
2901 1497 M
0 63 V
0 2557 R
0 -63 V
stroke
3650 1497 M
0 63 V
0 2557 R
0 -63 V
stroke
4398 1497 M
0 63 V
0 2557 R
0 -63 V
stroke
1.000 UL
LTb
1404 4117 N
0 -2620 V
3743 0 V
0 2620 V
-3743 0 V
Z stroke
1.000 UP
1.000 UL
LTb
3.000 UL
LTb
0.00 0.62 0.45 C LCb setrgbcolor
3.000 UL
LTb
0.00 0.62 0.45 C 4292 3944 M
591 0 V
1404 1500 M
19 0 V
0 58 V
37 0 V
0 90 V
38 0 V
0 126 V
37 0 V
0 230 V
37 0 V
0 154 V
38 0 V
0 207 V
37 0 V
0 285 V
38 0 V
0 166 V
37 0 V
0 3 V
38 0 V
0 224 V
37 0 V
0 9 V
37 0 V
0 17 V
38 0 V
0 -58 V
37 0 V
0 -32 V
38 0 V
0 -128 V
37 0 V
0 -64 V
38 0 V
0 -91 V
37 0 V
0 -139 V
37 0 V
0 -131 V
38 0 V
0 -47 V
37 0 V
0 -38 V
38 0 V
0 24 V
37 0 V
0 -88 V
38 0 V
0 -90 V
37 0 V
0 -67 V
37 0 V
0 -17 V
38 0 V
0 -24 V
37 0 V
0 -61 V
38 0 V
0 67 V
37 0 V
0 -84 V
38 0 V
0 52 V
37 0 V
0 -160 V
37 0 V
0 46 V
38 0 V
0 -37 V
37 0 V
0 -76 V
38 0 V
37 0 V
0 6 V
38 0 V
0 14 V
37 0 V
0 -64 V
37 0 V
0 -11 V
38 0 V
0 11 V
37 0 V
0 -58 V
38 0 V
0 32 V
37 0 V
0 -64 V
38 0 V
0 15 V
37 0 V
0 -53 V
37 0 V
0 -38 V
38 0 V
0 -3 V
37 0 V
0 -8 V
38 0 V
0 46 V
37 0 V
0 -43 V
38 0 V
stroke 3332 1608 M
0 -21 V
37 0 V
0 -11 V
38 0 V
0 3 V
37 0 V
0 -30 V
37 0 V
0 3 V
38 0 V
0 -6 V
37 0 V
0 -17 V
38 0 V
0 -9 V
37 0 V
0 9 V
38 0 V
0 -15 V
37 0 V
0 6 V
37 0 V
0 -8 V
38 0 V
0 2 V
37 0 V
0 -5 V
38 0 V
0 5 V
37 0 V
0 -8 V
38 0 V
0 -3 V
37 0 V
37 0 V
0 -3 V
38 0 V
0 -3 V
37 0 V
0 3 V
38 0 V
0 -3 V
37 0 V
38 0 V
0 3 V
37 0 V
0 -3 V
37 0 V
38 0 V
37 0 V
38 0 V
37 0 V
38 0 V
37 0 V
37 0 V
38 0 V
37 0 V
38 0 V
37 0 V
38 0 V
37 0 V
37 0 V
38 0 V
37 0 V
38 0 V
37 0 V
38 0 V
37 0 V
37 0 V
38 0 V
37 0 V
stroke
2.000 UL
LTb
LCb setrgbcolor
[] 0 setdash
0.00 0.45 0.70 C LCb setrgbcolor
2.000 UL
LTb
0.00 0.45 0.70 C 4292 3724 M
591 0 V
1404 1497 M
38 23 V
38 67 V
37 106 V
38 140 V
38 165 V
38 179 V
38 183 V
37 177 V
38 162 V
38 138 V
38 109 V
38 76 V
38 40 V
37 6 V
38 -27 V
38 -56 V
38 -81 V
38 -99 V
37 -113 V
38 -120 V
38 -124 V
38 -122 V
38 -117 V
37 -109 V
38 -100 V
38 -89 V
38 -78 V
38 -67 V
37 -56 V
38 -47 V
38 -38 V
38 -31 V
38 -24 V
37 -19 V
38 -14 V
38 -11 V
38 -9 V
38 -6 V
38 -4 V
37 -3 V
38 -2 V
38 -2 V
38 -1 V
38 -1 V
37 0 V
38 0 V
38 -1 V
38 0 V
38 0 V
37 0 V
38 0 V
38 0 V
38 0 V
38 0 V
37 0 V
38 0 V
38 0 V
38 0 V
38 0 V
37 0 V
38 0 V
38 0 V
38 0 V
38 0 V
38 0 V
37 0 V
38 0 V
38 0 V
38 0 V
38 0 V
37 0 V
38 0 V
38 0 V
38 0 V
38 0 V
37 0 V
38 0 V
38 0 V
38 0 V
38 0 V
37 0 V
38 0 V
38 0 V
38 0 V
38 0 V
37 0 V
38 0 V
38 0 V
38 0 V
38 0 V
38 0 V
37 0 V
38 0 V
38 0 V
38 0 V
38 0 V
37 0 V
38 0 V
38 0 V
stroke
LTb
LCb setrgbcolor
[] 0 setdash
1.000 UL
LTb
1404 4117 N
0 -2620 V
3743 0 V
0 2620 V
-3743 0 V
Z stroke
1.000 UP
1.000 UL
LTb
1.000 UL
LTb
5148 2079 M
63 0 V
3680 0 R
-63 0 V
stroke
5148 2661 M
63 0 V
3680 0 R
-63 0 V
stroke
5148 3244 M
63 0 V
3680 0 R
-63 0 V
stroke
5148 3826 M
63 0 V
3680 0 R
-63 0 V
stroke
5897 1497 M
0 63 V
0 2557 R
0 -63 V
stroke
6645 1497 M
0 63 V
0 2557 R
0 -63 V
stroke
7394 1497 M
0 63 V
0 2557 R
0 -63 V
stroke
8142 1497 M
0 63 V
0 2557 R
0 -63 V
stroke
1.000 UL
LTb
5148 4117 N
0 -2620 V
3743 0 V
0 2620 V
-3743 0 V
Z stroke
1.000 UP
1.000 UL
LTb
3.000 UL
LTb
0.00 0.62 0.45 C LCb setrgbcolor
3.000 UL
LTb
0.00 0.62 0.45 C 8036 3944 M
591 0 V
5148 1506 M
19 0 V
0 32 V
37 0 V
0 64 V
38 0 V
0 157 V
37 0 V
0 70 V
37 0 V
0 154 V
38 0 V
0 114 V
37 0 V
0 145 V
38 0 V
0 192 V
37 0 V
0 120 V
38 0 V
0 64 V
37 0 V
0 145 V
37 0 V
0 -78 V
38 0 V
0 61 V
37 0 V
0 78 V
38 0 V
0 -151 V
37 0 V
0 26 V
38 0 V
0 -96 V
37 0 V
0 -107 V
37 0 V
0 34 V
38 0 V
0 -26 V
37 0 V
0 -134 V
38 0 V
0 -8 V
37 0 V
0 -79 V
38 0 V
0 -15 V
37 0 V
0 -34 V
37 0 V
0 -70 V
38 0 V
0 -12 V
37 0 V
0 -35 V
38 0 V
0 -23 V
37 0 V
0 -15 V
38 0 V
0 58 V
37 0 V
0 -37 V
37 0 V
0 -3 V
38 0 V
0 -67 V
37 0 V
38 0 V
0 -79 V
37 0 V
0 44 V
38 0 V
0 -82 V
37 0 V
0 18 V
37 0 V
0 -18 V
38 0 V
0 3 V
37 0 V
0 -43 V
38 0 V
0 -12 V
37 0 V
0 -18 V
38 0 V
37 0 V
0 -40 V
37 0 V
0 -12 V
38 0 V
0 -64 V
37 0 V
0 17 V
38 0 V
0 -17 V
37 0 V
0 -6 V
38 0 V
0 3 V
stroke 7076 1724 M
37 0 V
0 -20 V
38 0 V
0 -32 V
37 0 V
0 -56 V
37 0 V
0 47 V
38 0 V
0 -50 V
37 0 V
0 -8 V
38 0 V
0 14 V
37 0 V
0 -35 V
38 0 V
0 -14 V
37 0 V
0 -9 V
37 0 V
0 29 V
38 0 V
0 -46 V
37 0 V
0 -6 V
38 0 V
0 26 V
37 0 V
0 -26 V
38 0 V
0 -6 V
37 0 V
0 6 V
37 0 V
0 -6 V
38 0 V
0 -15 V
37 0 V
0 9 V
38 0 V
0 -14 V
37 0 V
0 -12 V
38 0 V
0 9 V
37 0 V
0 -9 V
37 0 V
0 3 V
38 0 V
0 -3 V
37 0 V
0 6 V
38 0 V
37 0 V
0 -3 V
38 0 V
0 3 V
37 0 V
0 -9 V
37 0 V
38 0 V
0 3 V
37 0 V
38 0 V
37 0 V
0 -3 V
38 0 V
37 0 V
37 0 V
38 0 V
37 0 V
38 0 V
37 0 V
38 0 V
37 0 V
37 0 V
38 0 V
37 0 V
stroke
2.000 UL
LTb
LCb setrgbcolor
[] 0 setdash
0.90 0.12 0.06 C LCb setrgbcolor
2.000 UL
LTb
0.90 0.12 0.06 C 8036 3724 M
591 0 V
5148 1497 M
38 12 V
38 35 V
37 56 V
38 76 V
38 92 V
38 104 V
38 113 V
37 118 V
38 118 V
38 113 V
38 106 V
38 95 V
38 80 V
37 64 V
38 47 V
38 29 V
38 11 V
38 -7 V
37 -23 V
38 -37 V
38 -50 V
38 -60 V
38 -69 V
37 -74 V
38 -78 V
38 -80 V
38 -79 V
38 -77 V
37 -75 V
38 -70 V
38 -65 V
38 -60 V
38 -54 V
37 -48 V
38 -43 V
38 -38 V
38 -32 V
38 -27 V
38 -24 V
37 -19 V
38 -16 V
38 -14 V
38 -11 V
38 -8 V
37 -7 V
38 -6 V
38 -4 V
38 -4 V
38 -2 V
37 -2 V
38 -2 V
38 -1 V
38 -1 V
38 0 V
37 -1 V
38 0 V
38 0 V
38 -1 V
38 0 V
37 0 V
38 0 V
38 0 V
38 0 V
38 0 V
38 0 V
37 0 V
38 0 V
38 0 V
38 0 V
38 0 V
37 0 V
38 0 V
38 0 V
38 0 V
38 0 V
37 0 V
38 0 V
38 0 V
38 0 V
38 0 V
37 0 V
38 0 V
38 0 V
38 0 V
38 0 V
37 0 V
38 0 V
38 0 V
38 0 V
38 0 V
38 0 V
37 0 V
38 0 V
38 0 V
38 0 V
38 0 V
37 0 V
38 0 V
38 0 V
stroke
LTb
LCb setrgbcolor
[] 0 setdash
1.000 UL
LTb
5148 4117 N
0 -2620 V
3743 0 V
0 2620 V
-3743 0 V
Z stroke
1.000 UP
1.000 UL
LTb
stroke
grestore
end
showpage
%%Trailer
