%!PS-Adobe-2.0 EPSF-2.0
%%Title: mayVSt.tex
%%Creator: gnuplot 5.0 patchlevel 3
%%CreationDate: Sun May 15 15:59:30 2016
%%DocumentFonts: 
%%BoundingBox: 50 50 410 266
%%EndComments
%%BeginProlog
/gnudict 256 dict def
gnudict begin
%
% The following true/false flags may be edited by hand if desired.
% The unit line width and grayscale image gamma correction may also be changed.
%
/Color true def
/Blacktext false def
/Solid false def
/Dashlength 1 def
/Landscape false def
/Level1 false def
/Level3 false def
/Rounded false def
/ClipToBoundingBox false def
/SuppressPDFMark false def
/TransparentPatterns false def
/gnulinewidth 5.000 def
/userlinewidth gnulinewidth def
/Gamma 1.0 def
/BackgroundColor {-1.000 -1.000 -1.000} def
%
/vshift -73 def
/dl1 {
  10.0 Dashlength userlinewidth gnulinewidth div mul mul mul
  Rounded { currentlinewidth 0.75 mul sub dup 0 le { pop 0.01 } if } if
} def
/dl2 {
  10.0 Dashlength userlinewidth gnulinewidth div mul mul mul
  Rounded { currentlinewidth 0.75 mul add } if
} def
/hpt_ 31.5 def
/vpt_ 31.5 def
/hpt hpt_ def
/vpt vpt_ def
/doclip {
  ClipToBoundingBox {
    newpath 50 50 moveto 410 50 lineto 410 266 lineto 50 266 lineto closepath
    clip
  } if
} def
%
% Gnuplot Prolog Version 5.1 (Oct 2015)
%
%/SuppressPDFMark true def
%
/M {moveto} bind def
/L {lineto} bind def
/R {rmoveto} bind def
/V {rlineto} bind def
/N {newpath moveto} bind def
/Z {closepath} bind def
/C {setrgbcolor} bind def
/f {rlineto fill} bind def
/g {setgray} bind def
/Gshow {show} def   % May be redefined later in the file to support UTF-8
/vpt2 vpt 2 mul def
/hpt2 hpt 2 mul def
/Lshow {currentpoint stroke M 0 vshift R 
	Blacktext {gsave 0 setgray textshow grestore} {textshow} ifelse} def
/Rshow {currentpoint stroke M dup stringwidth pop neg vshift R
	Blacktext {gsave 0 setgray textshow grestore} {textshow} ifelse} def
/Cshow {currentpoint stroke M dup stringwidth pop -2 div vshift R 
	Blacktext {gsave 0 setgray textshow grestore} {textshow} ifelse} def
/UP {dup vpt_ mul /vpt exch def hpt_ mul /hpt exch def
  /hpt2 hpt 2 mul def /vpt2 vpt 2 mul def} def
/DL {Color {setrgbcolor Solid {pop []} if 0 setdash}
 {pop pop pop 0 setgray Solid {pop []} if 0 setdash} ifelse} def
/BL {stroke userlinewidth 2 mul setlinewidth
	Rounded {1 setlinejoin 1 setlinecap} if} def
/AL {stroke userlinewidth 2 div setlinewidth
	Rounded {1 setlinejoin 1 setlinecap} if} def
/UL {dup gnulinewidth mul /userlinewidth exch def
	dup 1 lt {pop 1} if 10 mul /udl exch def} def
/PL {stroke userlinewidth setlinewidth
	Rounded {1 setlinejoin 1 setlinecap} if} def
3.8 setmiterlimit
% Classic Line colors (version 5.0)
/LCw {1 1 1} def
/LCb {0 0 0} def
/LCa {0 0 0} def
/LC0 {1 0 0} def
/LC1 {0 1 0} def
/LC2 {0 0 1} def
/LC3 {1 0 1} def
/LC4 {0 1 1} def
/LC5 {1 1 0} def
/LC6 {0 0 0} def
/LC7 {1 0.3 0} def
/LC8 {0.5 0.5 0.5} def
% Default dash patterns (version 5.0)
/LTB {BL [] LCb DL} def
/LTw {PL [] 1 setgray} def
/LTb {PL [] LCb DL} def
/LTa {AL [1 udl mul 2 udl mul] 0 setdash LCa setrgbcolor} def
/LT0 {PL [] LC0 DL} def
/LT1 {PL [2 dl1 3 dl2] LC1 DL} def
/LT2 {PL [1 dl1 1.5 dl2] LC2 DL} def
/LT3 {PL [6 dl1 2 dl2 1 dl1 2 dl2] LC3 DL} def
/LT4 {PL [1 dl1 2 dl2 6 dl1 2 dl2 1 dl1 2 dl2] LC4 DL} def
/LT5 {PL [4 dl1 2 dl2] LC5 DL} def
/LT6 {PL [1.5 dl1 1.5 dl2 1.5 dl1 1.5 dl2 1.5 dl1 6 dl2] LC6 DL} def
/LT7 {PL [3 dl1 3 dl2 1 dl1 3 dl2] LC7 DL} def
/LT8 {PL [2 dl1 2 dl2 2 dl1 6 dl2] LC8 DL} def
/SL {[] 0 setdash} def
/Pnt {stroke [] 0 setdash gsave 1 setlinecap M 0 0 V stroke grestore} def
/Dia {stroke [] 0 setdash 2 copy vpt add M
  hpt neg vpt neg V hpt vpt neg V
  hpt vpt V hpt neg vpt V closepath stroke
  Pnt} def
/Pls {stroke [] 0 setdash vpt sub M 0 vpt2 V
  currentpoint stroke M
  hpt neg vpt neg R hpt2 0 V stroke
 } def
/Box {stroke [] 0 setdash 2 copy exch hpt sub exch vpt add M
  0 vpt2 neg V hpt2 0 V 0 vpt2 V
  hpt2 neg 0 V closepath stroke
  Pnt} def
/Crs {stroke [] 0 setdash exch hpt sub exch vpt add M
  hpt2 vpt2 neg V currentpoint stroke M
  hpt2 neg 0 R hpt2 vpt2 V stroke} def
/TriU {stroke [] 0 setdash 2 copy vpt 1.12 mul add M
  hpt neg vpt -1.62 mul V
  hpt 2 mul 0 V
  hpt neg vpt 1.62 mul V closepath stroke
  Pnt} def
/Star {2 copy Pls Crs} def
/BoxF {stroke [] 0 setdash exch hpt sub exch vpt add M
  0 vpt2 neg V hpt2 0 V 0 vpt2 V
  hpt2 neg 0 V closepath fill} def
/TriUF {stroke [] 0 setdash vpt 1.12 mul add M
  hpt neg vpt -1.62 mul V
  hpt 2 mul 0 V
  hpt neg vpt 1.62 mul V closepath fill} def
/TriD {stroke [] 0 setdash 2 copy vpt 1.12 mul sub M
  hpt neg vpt 1.62 mul V
  hpt 2 mul 0 V
  hpt neg vpt -1.62 mul V closepath stroke
  Pnt} def
/TriDF {stroke [] 0 setdash vpt 1.12 mul sub M
  hpt neg vpt 1.62 mul V
  hpt 2 mul 0 V
  hpt neg vpt -1.62 mul V closepath fill} def
/DiaF {stroke [] 0 setdash vpt add M
  hpt neg vpt neg V hpt vpt neg V
  hpt vpt V hpt neg vpt V closepath fill} def
/Pent {stroke [] 0 setdash 2 copy gsave
  translate 0 hpt M 4 {72 rotate 0 hpt L} repeat
  closepath stroke grestore Pnt} def
/PentF {stroke [] 0 setdash gsave
  translate 0 hpt M 4 {72 rotate 0 hpt L} repeat
  closepath fill grestore} def
/Circle {stroke [] 0 setdash 2 copy
  hpt 0 360 arc stroke Pnt} def
/CircleF {stroke [] 0 setdash hpt 0 360 arc fill} def
/C0 {BL [] 0 setdash 2 copy moveto vpt 90 450 arc} bind def
/C1 {BL [] 0 setdash 2 copy moveto
	2 copy vpt 0 90 arc closepath fill
	vpt 0 360 arc closepath} bind def
/C2 {BL [] 0 setdash 2 copy moveto
	2 copy vpt 90 180 arc closepath fill
	vpt 0 360 arc closepath} bind def
/C3 {BL [] 0 setdash 2 copy moveto
	2 copy vpt 0 180 arc closepath fill
	vpt 0 360 arc closepath} bind def
/C4 {BL [] 0 setdash 2 copy moveto
	2 copy vpt 180 270 arc closepath fill
	vpt 0 360 arc closepath} bind def
/C5 {BL [] 0 setdash 2 copy moveto
	2 copy vpt 0 90 arc
	2 copy moveto
	2 copy vpt 180 270 arc closepath fill
	vpt 0 360 arc} bind def
/C6 {BL [] 0 setdash 2 copy moveto
	2 copy vpt 90 270 arc closepath fill
	vpt 0 360 arc closepath} bind def
/C7 {BL [] 0 setdash 2 copy moveto
	2 copy vpt 0 270 arc closepath fill
	vpt 0 360 arc closepath} bind def
/C8 {BL [] 0 setdash 2 copy moveto
	2 copy vpt 270 360 arc closepath fill
	vpt 0 360 arc closepath} bind def
/C9 {BL [] 0 setdash 2 copy moveto
	2 copy vpt 270 450 arc closepath fill
	vpt 0 360 arc closepath} bind def
/C10 {BL [] 0 setdash 2 copy 2 copy moveto vpt 270 360 arc closepath fill
	2 copy moveto
	2 copy vpt 90 180 arc closepath fill
	vpt 0 360 arc closepath} bind def
/C11 {BL [] 0 setdash 2 copy moveto
	2 copy vpt 0 180 arc closepath fill
	2 copy moveto
	2 copy vpt 270 360 arc closepath fill
	vpt 0 360 arc closepath} bind def
/C12 {BL [] 0 setdash 2 copy moveto
	2 copy vpt 180 360 arc closepath fill
	vpt 0 360 arc closepath} bind def
/C13 {BL [] 0 setdash 2 copy moveto
	2 copy vpt 0 90 arc closepath fill
	2 copy moveto
	2 copy vpt 180 360 arc closepath fill
	vpt 0 360 arc closepath} bind def
/C14 {BL [] 0 setdash 2 copy moveto
	2 copy vpt 90 360 arc closepath fill
	vpt 0 360 arc} bind def
/C15 {BL [] 0 setdash 2 copy vpt 0 360 arc closepath fill
	vpt 0 360 arc closepath} bind def
/Rec {newpath 4 2 roll moveto 1 index 0 rlineto 0 exch rlineto
	neg 0 rlineto closepath} bind def
/Square {dup Rec} bind def
/Bsquare {vpt sub exch vpt sub exch vpt2 Square} bind def
/S0 {BL [] 0 setdash 2 copy moveto 0 vpt rlineto BL Bsquare} bind def
/S1 {BL [] 0 setdash 2 copy vpt Square fill Bsquare} bind def
/S2 {BL [] 0 setdash 2 copy exch vpt sub exch vpt Square fill Bsquare} bind def
/S3 {BL [] 0 setdash 2 copy exch vpt sub exch vpt2 vpt Rec fill Bsquare} bind def
/S4 {BL [] 0 setdash 2 copy exch vpt sub exch vpt sub vpt Square fill Bsquare} bind def
/S5 {BL [] 0 setdash 2 copy 2 copy vpt Square fill
	exch vpt sub exch vpt sub vpt Square fill Bsquare} bind def
/S6 {BL [] 0 setdash 2 copy exch vpt sub exch vpt sub vpt vpt2 Rec fill Bsquare} bind def
/S7 {BL [] 0 setdash 2 copy exch vpt sub exch vpt sub vpt vpt2 Rec fill
	2 copy vpt Square fill Bsquare} bind def
/S8 {BL [] 0 setdash 2 copy vpt sub vpt Square fill Bsquare} bind def
/S9 {BL [] 0 setdash 2 copy vpt sub vpt vpt2 Rec fill Bsquare} bind def
/S10 {BL [] 0 setdash 2 copy vpt sub vpt Square fill 2 copy exch vpt sub exch vpt Square fill
	Bsquare} bind def
/S11 {BL [] 0 setdash 2 copy vpt sub vpt Square fill 2 copy exch vpt sub exch vpt2 vpt Rec fill
	Bsquare} bind def
/S12 {BL [] 0 setdash 2 copy exch vpt sub exch vpt sub vpt2 vpt Rec fill Bsquare} bind def
/S13 {BL [] 0 setdash 2 copy exch vpt sub exch vpt sub vpt2 vpt Rec fill
	2 copy vpt Square fill Bsquare} bind def
/S14 {BL [] 0 setdash 2 copy exch vpt sub exch vpt sub vpt2 vpt Rec fill
	2 copy exch vpt sub exch vpt Square fill Bsquare} bind def
/S15 {BL [] 0 setdash 2 copy Bsquare fill Bsquare} bind def
/D0 {gsave translate 45 rotate 0 0 S0 stroke grestore} bind def
/D1 {gsave translate 45 rotate 0 0 S1 stroke grestore} bind def
/D2 {gsave translate 45 rotate 0 0 S2 stroke grestore} bind def
/D3 {gsave translate 45 rotate 0 0 S3 stroke grestore} bind def
/D4 {gsave translate 45 rotate 0 0 S4 stroke grestore} bind def
/D5 {gsave translate 45 rotate 0 0 S5 stroke grestore} bind def
/D6 {gsave translate 45 rotate 0 0 S6 stroke grestore} bind def
/D7 {gsave translate 45 rotate 0 0 S7 stroke grestore} bind def
/D8 {gsave translate 45 rotate 0 0 S8 stroke grestore} bind def
/D9 {gsave translate 45 rotate 0 0 S9 stroke grestore} bind def
/D10 {gsave translate 45 rotate 0 0 S10 stroke grestore} bind def
/D11 {gsave translate 45 rotate 0 0 S11 stroke grestore} bind def
/D12 {gsave translate 45 rotate 0 0 S12 stroke grestore} bind def
/D13 {gsave translate 45 rotate 0 0 S13 stroke grestore} bind def
/D14 {gsave translate 45 rotate 0 0 S14 stroke grestore} bind def
/D15 {gsave translate 45 rotate 0 0 S15 stroke grestore} bind def
/DiaE {stroke [] 0 setdash vpt add M
  hpt neg vpt neg V hpt vpt neg V
  hpt vpt V hpt neg vpt V closepath stroke} def
/BoxE {stroke [] 0 setdash exch hpt sub exch vpt add M
  0 vpt2 neg V hpt2 0 V 0 vpt2 V
  hpt2 neg 0 V closepath stroke} def
/TriUE {stroke [] 0 setdash vpt 1.12 mul add M
  hpt neg vpt -1.62 mul V
  hpt 2 mul 0 V
  hpt neg vpt 1.62 mul V closepath stroke} def
/TriDE {stroke [] 0 setdash vpt 1.12 mul sub M
  hpt neg vpt 1.62 mul V
  hpt 2 mul 0 V
  hpt neg vpt -1.62 mul V closepath stroke} def
/PentE {stroke [] 0 setdash gsave
  translate 0 hpt M 4 {72 rotate 0 hpt L} repeat
  closepath stroke grestore} def
/CircE {stroke [] 0 setdash 
  hpt 0 360 arc stroke} def
/Opaque {gsave closepath 1 setgray fill grestore 0 setgray closepath} def
/DiaW {stroke [] 0 setdash vpt add M
  hpt neg vpt neg V hpt vpt neg V
  hpt vpt V hpt neg vpt V Opaque stroke} def
/BoxW {stroke [] 0 setdash exch hpt sub exch vpt add M
  0 vpt2 neg V hpt2 0 V 0 vpt2 V
  hpt2 neg 0 V Opaque stroke} def
/TriUW {stroke [] 0 setdash vpt 1.12 mul add M
  hpt neg vpt -1.62 mul V
  hpt 2 mul 0 V
  hpt neg vpt 1.62 mul V Opaque stroke} def
/TriDW {stroke [] 0 setdash vpt 1.12 mul sub M
  hpt neg vpt 1.62 mul V
  hpt 2 mul 0 V
  hpt neg vpt -1.62 mul V Opaque stroke} def
/PentW {stroke [] 0 setdash gsave
  translate 0 hpt M 4 {72 rotate 0 hpt L} repeat
  Opaque stroke grestore} def
/CircW {stroke [] 0 setdash 
  hpt 0 360 arc Opaque stroke} def
/BoxFill {gsave Rec 1 setgray fill grestore} def
/Density {
  /Fillden exch def
  currentrgbcolor
  /ColB exch def /ColG exch def /ColR exch def
  /ColR ColR Fillden mul Fillden sub 1 add def
  /ColG ColG Fillden mul Fillden sub 1 add def
  /ColB ColB Fillden mul Fillden sub 1 add def
  ColR ColG ColB setrgbcolor} def
/BoxColFill {gsave Rec PolyFill} def
/PolyFill {gsave Density fill grestore grestore} def
/h {rlineto rlineto rlineto gsave closepath fill grestore} bind def
%
% PostScript Level 1 Pattern Fill routine for rectangles
% Usage: x y w h s a XX PatternFill
%	x,y = lower left corner of box to be filled
%	w,h = width and height of box
%	  a = angle in degrees between lines and x-axis
%	 XX = 0/1 for no/yes cross-hatch
%
/PatternFill {gsave /PFa [ 9 2 roll ] def
  PFa 0 get PFa 2 get 2 div add PFa 1 get PFa 3 get 2 div add translate
  PFa 2 get -2 div PFa 3 get -2 div PFa 2 get PFa 3 get Rec
  TransparentPatterns {} {gsave 1 setgray fill grestore} ifelse
  clip
  currentlinewidth 0.5 mul setlinewidth
  /PFs PFa 2 get dup mul PFa 3 get dup mul add sqrt def
  0 0 M PFa 5 get rotate PFs -2 div dup translate
  0 1 PFs PFa 4 get div 1 add floor cvi
	{PFa 4 get mul 0 M 0 PFs V} for
  0 PFa 6 get ne {
	0 1 PFs PFa 4 get div 1 add floor cvi
	{PFa 4 get mul 0 2 1 roll M PFs 0 V} for
 } if
  stroke grestore} def
%
/languagelevel where
 {pop languagelevel} {1} ifelse
dup 2 lt
	{/InterpretLevel1 true def
	 /InterpretLevel3 false def}
	{/InterpretLevel1 Level1 def
	 2 gt
	    {/InterpretLevel3 Level3 def}
	    {/InterpretLevel3 false def}
	 ifelse }
 ifelse
%
% PostScript level 2 pattern fill definitions
%
/Level2PatternFill {
/Tile8x8 {/PaintType 2 /PatternType 1 /TilingType 1 /BBox [0 0 8 8] /XStep 8 /YStep 8}
	bind def
/KeepColor {currentrgbcolor [/Pattern /DeviceRGB] setcolorspace} bind def
<< Tile8x8
 /PaintProc {0.5 setlinewidth pop 0 0 M 8 8 L 0 8 M 8 0 L stroke} 
>> matrix makepattern
/Pat1 exch def
<< Tile8x8
 /PaintProc {0.5 setlinewidth pop 0 0 M 8 8 L 0 8 M 8 0 L stroke
	0 4 M 4 8 L 8 4 L 4 0 L 0 4 L stroke}
>> matrix makepattern
/Pat2 exch def
<< Tile8x8
 /PaintProc {0.5 setlinewidth pop 0 0 M 0 8 L
	8 8 L 8 0 L 0 0 L fill}
>> matrix makepattern
/Pat3 exch def
<< Tile8x8
 /PaintProc {0.5 setlinewidth pop -4 8 M 8 -4 L
	0 12 M 12 0 L stroke}
>> matrix makepattern
/Pat4 exch def
<< Tile8x8
 /PaintProc {0.5 setlinewidth pop -4 0 M 8 12 L
	0 -4 M 12 8 L stroke}
>> matrix makepattern
/Pat5 exch def
<< Tile8x8
 /PaintProc {0.5 setlinewidth pop -2 8 M 4 -4 L
	0 12 M 8 -4 L 4 12 M 10 0 L stroke}
>> matrix makepattern
/Pat6 exch def
<< Tile8x8
 /PaintProc {0.5 setlinewidth pop -2 0 M 4 12 L
	0 -4 M 8 12 L 4 -4 M 10 8 L stroke}
>> matrix makepattern
/Pat7 exch def
<< Tile8x8
 /PaintProc {0.5 setlinewidth pop 8 -2 M -4 4 L
	12 0 M -4 8 L 12 4 M 0 10 L stroke}
>> matrix makepattern
/Pat8 exch def
<< Tile8x8
 /PaintProc {0.5 setlinewidth pop 0 -2 M 12 4 L
	-4 0 M 12 8 L -4 4 M 8 10 L stroke}
>> matrix makepattern
/Pat9 exch def
/Pattern1 {PatternBgnd KeepColor Pat1 setpattern} bind def
/Pattern2 {PatternBgnd KeepColor Pat2 setpattern} bind def
/Pattern3 {PatternBgnd KeepColor Pat3 setpattern} bind def
/Pattern4 {PatternBgnd KeepColor Landscape {Pat5} {Pat4} ifelse setpattern} bind def
/Pattern5 {PatternBgnd KeepColor Landscape {Pat4} {Pat5} ifelse setpattern} bind def
/Pattern6 {PatternBgnd KeepColor Landscape {Pat9} {Pat6} ifelse setpattern} bind def
/Pattern7 {PatternBgnd KeepColor Landscape {Pat8} {Pat7} ifelse setpattern} bind def
} def
%
%
%End of PostScript Level 2 code
%
/PatternBgnd {
  TransparentPatterns {} {gsave 1 setgray fill grestore} ifelse
} def
%
% Substitute for Level 2 pattern fill codes with
% grayscale if Level 2 support is not selected.
%
/Level1PatternFill {
/Pattern1 {0.250 Density} bind def
/Pattern2 {0.500 Density} bind def
/Pattern3 {0.750 Density} bind def
/Pattern4 {0.125 Density} bind def
/Pattern5 {0.375 Density} bind def
/Pattern6 {0.625 Density} bind def
/Pattern7 {0.875 Density} bind def
} def
%
% Now test for support of Level 2 code
%
Level1 {Level1PatternFill} {Level2PatternFill} ifelse
%
/Symbol-Oblique /Symbol findfont [1 0 .167 1 0 0] makefont
dup length dict begin {1 index /FID eq {pop pop} {def} ifelse} forall
currentdict end definefont pop
%
Level1 SuppressPDFMark or 
{} {
/SDict 10 dict def
systemdict /pdfmark known not {
  userdict /pdfmark systemdict /cleartomark get put
} if
SDict begin [
  /Title (mayVSt.tex)
  /Subject (gnuplot plot)
  /Creator (gnuplot 5.0 patchlevel 3)
  /Author (william)
%  /Producer (gnuplot)
%  /Keywords ()
  /CreationDate (Sun May 15 15:59:30 2016)
  /DOCINFO pdfmark
end
} ifelse
%
% Support for boxed text - Ethan A Merritt May 2005
%
/InitTextBox { userdict /TBy2 3 -1 roll put userdict /TBx2 3 -1 roll put
           userdict /TBy1 3 -1 roll put userdict /TBx1 3 -1 roll put
	   /Boxing true def } def
/ExtendTextBox { Boxing
    { gsave dup false charpath pathbbox
      dup TBy2 gt {userdict /TBy2 3 -1 roll put} {pop} ifelse
      dup TBx2 gt {userdict /TBx2 3 -1 roll put} {pop} ifelse
      dup TBy1 lt {userdict /TBy1 3 -1 roll put} {pop} ifelse
      dup TBx1 lt {userdict /TBx1 3 -1 roll put} {pop} ifelse
      grestore } if } def
/PopTextBox { newpath TBx1 TBxmargin sub TBy1 TBymargin sub M
               TBx1 TBxmargin sub TBy2 TBymargin add L
	       TBx2 TBxmargin add TBy2 TBymargin add L
	       TBx2 TBxmargin add TBy1 TBymargin sub L closepath } def
/DrawTextBox { PopTextBox stroke /Boxing false def} def
/FillTextBox { gsave PopTextBox 1 1 1 setrgbcolor fill grestore /Boxing false def} def
0 0 0 0 InitTextBox
/TBxmargin 20 def
/TBymargin 20 def
/Boxing false def
/textshow { ExtendTextBox Gshow } def
%
% redundant definitions for compatibility with prologue.ps older than 5.0.2
/LTB {BL [] LCb DL} def
/LTb {PL [] LCb DL} def
end
%%EndProlog
%%Page: 1 1
gnudict begin
gsave
doclip
50 50 translate
0.050 0.050 scale
0 setgray
newpath
1.000 UL
LTb
LCb setrgbcolor
[] 0 setdash
946 704 M
63 0 V
5794 0 R
-63 0 V
stroke
LTb
946 1151 M
63 0 V
5794 0 R
-63 0 V
stroke
946 1598 M
63 0 V
5794 0 R
-63 0 V
stroke
946 2044 M
63 0 V
5794 0 R
-63 0 V
stroke
946 2491 M
63 0 V
5794 0 R
-63 0 V
stroke
946 2938 M
63 0 V
5794 0 R
-63 0 V
stroke
946 3385 M
63 0 V
5794 0 R
-63 0 V
stroke
946 3832 M
63 0 V
5794 0 R
-63 0 V
stroke
1714 704 M
0 63 V
0 3288 R
0 -63 V
stroke
2674 704 M
0 63 V
0 3288 R
0 -63 V
stroke
3634 704 M
0 63 V
0 3288 R
0 -63 V
stroke
4595 704 M
0 63 V
0 3288 R
0 -63 V
stroke
5555 704 M
0 63 V
0 3288 R
0 -63 V
stroke
6515 704 M
0 63 V
0 3288 R
0 -63 V
stroke
1.000 UL
LTb
946 4055 N
946 704 L
5857 0 V
0 3351 V
-5857 0 V
Z stroke
1.000 UP
0.00 0.15 0.68 C 0.00 0.26 0.68 C 0.00 0.38 0.68 C 0.00 0.49 0.68 C 0.00 0.60 0.68 C 0.00 0.68 0.64 C 0.00 0.68 0.53 C 0.00 0.68 0.42 C 1.000 UL
LTb
LCb setrgbcolor
[] 0 setdash
LTb
0.500 UP
1.000 UL
LTb
0.00 0.15 0.68 C 946 3742 M
96 -1094 V
96 -983 V
96 -246 V
96 -67 V
96 -89 V
96 -45 V
96 -67 V
96 0 V
96 -23 V
96 -22 V
96 -22 V
96 -45 V
96 -22 V
96 0 V
96 0 V
96 -23 V
96 0 V
96 0 V
96 0 V
96 0 V
96 -22 V
96 0 V
96 0 V
96 0 V
96 0 V
96 0 V
96 0 V
96 0 V
96 0 V
96 -22 V
97 0 V
96 0 V
96 0 V
96 0 V
96 0 V
96 0 V
96 0 V
96 0 V
96 0 V
96 0 V
96 -23 V
96 0 V
96 0 V
96 0 V
96 0 V
96 0 V
96 0 V
96 0 V
96 0 V
96 0 V
96 0 V
96 -22 V
96 0 V
96 0 V
96 0 V
96 0 V
96 -22 V
96 0 V
96 0 V
946 3742 CircleF
1042 2648 CircleF
1138 1665 CircleF
1234 1419 CircleF
1330 1352 CircleF
1426 1263 CircleF
1522 1218 CircleF
1618 1151 CircleF
1714 1151 CircleF
1810 1128 CircleF
1906 1106 CircleF
2002 1084 CircleF
2098 1039 CircleF
2194 1017 CircleF
2290 1017 CircleF
2386 1017 CircleF
2482 994 CircleF
2578 994 CircleF
2674 994 CircleF
2770 994 CircleF
2866 994 CircleF
2962 972 CircleF
3058 972 CircleF
3154 972 CircleF
3250 972 CircleF
3346 972 CircleF
3442 972 CircleF
3538 972 CircleF
3634 972 CircleF
3730 972 CircleF
3826 950 CircleF
3923 950 CircleF
4019 950 CircleF
4115 950 CircleF
4211 950 CircleF
4307 950 CircleF
4403 950 CircleF
4499 950 CircleF
4595 950 CircleF
4691 950 CircleF
4787 950 CircleF
4883 927 CircleF
4979 927 CircleF
5075 927 CircleF
5171 927 CircleF
5267 927 CircleF
5363 927 CircleF
5459 927 CircleF
5555 927 CircleF
5651 927 CircleF
5747 927 CircleF
5843 927 CircleF
5939 905 CircleF
6035 905 CircleF
6131 905 CircleF
6227 905 CircleF
6323 905 CircleF
6419 883 CircleF
6515 883 CircleF
6611 883 CircleF
0.500 UP
1.000 UL
LTb
LCb setrgbcolor
[] 0 setdash
0.00 0.26 0.68 C 946 3742 M
96 -871 V
96 -849 V
96 -223 V
96 -134 V
96 -45 V
96 -89 V
96 -90 V
96 -67 V
96 -22 V
96 -22 V
96 -23 V
96 -44 V
96 -23 V
96 0 V
96 0 V
96 0 V
96 0 V
96 0 V
96 0 V
96 0 V
96 0 V
96 0 V
96 0 V
96 0 V
96 0 V
96 0 V
96 0 V
96 0 V
96 0 V
96 0 V
97 0 V
96 0 V
96 0 V
96 0 V
96 -22 V
96 0 V
96 0 V
96 0 V
96 -23 V
96 0 V
96 0 V
96 -22 V
96 0 V
96 0 V
96 0 V
96 -22 V
96 0 V
96 0 V
96 0 V
96 0 V
96 0 V
96 0 V
96 0 V
96 0 V
96 0 V
96 0 V
96 0 V
96 0 V
96 0 V
946 3742 CircleF
1042 2871 CircleF
1138 2022 CircleF
1234 1799 CircleF
1330 1665 CircleF
1426 1620 CircleF
1522 1531 CircleF
1618 1441 CircleF
1714 1374 CircleF
1810 1352 CircleF
1906 1330 CircleF
2002 1307 CircleF
2098 1263 CircleF
2194 1240 CircleF
2290 1240 CircleF
2386 1240 CircleF
2482 1240 CircleF
2578 1240 CircleF
2674 1240 CircleF
2770 1240 CircleF
2866 1240 CircleF
2962 1240 CircleF
3058 1240 CircleF
3154 1240 CircleF
3250 1240 CircleF
3346 1240 CircleF
3442 1240 CircleF
3538 1240 CircleF
3634 1240 CircleF
3730 1240 CircleF
3826 1240 CircleF
3923 1240 CircleF
4019 1240 CircleF
4115 1240 CircleF
4211 1240 CircleF
4307 1218 CircleF
4403 1218 CircleF
4499 1218 CircleF
4595 1218 CircleF
4691 1195 CircleF
4787 1195 CircleF
4883 1195 CircleF
4979 1173 CircleF
5075 1173 CircleF
5171 1173 CircleF
5267 1173 CircleF
5363 1151 CircleF
5459 1151 CircleF
5555 1151 CircleF
5651 1151 CircleF
5747 1151 CircleF
5843 1151 CircleF
5939 1151 CircleF
6035 1151 CircleF
6131 1151 CircleF
6227 1151 CircleF
6323 1151 CircleF
6419 1151 CircleF
6515 1151 CircleF
6611 1151 CircleF
0.500 UP
1.000 UL
LTb
LCb setrgbcolor
[] 0 setdash
0.00 0.38 0.68 C 946 3742 M
96 -335 V
96 -581 V
96 -178 V
96 -246 V
96 -134 V
96 -112 V
96 -45 V
96 -67 V
96 -89 V
96 0 V
96 0 V
96 -45 V
96 -22 V
96 -22 V
96 0 V
96 0 V
96 -23 V
96 0 V
96 -44 V
96 0 V
96 0 V
96 0 V
96 0 V
96 0 V
96 0 V
96 0 V
96 0 V
96 -23 V
96 -22 V
96 0 V
97 0 V
96 0 V
96 0 V
96 0 V
96 0 V
96 0 V
96 0 V
96 0 V
96 0 V
96 0 V
96 0 V
96 -22 V
96 0 V
96 0 V
96 0 V
96 0 V
96 -23 V
96 0 V
96 0 V
96 0 V
96 0 V
96 0 V
96 -22 V
96 0 V
96 0 V
96 0 V
96 0 V
96 0 V
96 0 V
946 3742 CircleF
1042 3407 CircleF
1138 2826 CircleF
1234 2648 CircleF
1330 2402 CircleF
1426 2268 CircleF
1522 2156 CircleF
1618 2111 CircleF
1714 2044 CircleF
1810 1955 CircleF
1906 1955 CircleF
2002 1955 CircleF
2098 1910 CircleF
2194 1888 CircleF
2290 1866 CircleF
2386 1866 CircleF
2482 1866 CircleF
2578 1843 CircleF
2674 1843 CircleF
2770 1799 CircleF
2866 1799 CircleF
2962 1799 CircleF
3058 1799 CircleF
3154 1799 CircleF
3250 1799 CircleF
3346 1799 CircleF
3442 1799 CircleF
3538 1799 CircleF
3634 1776 CircleF
3730 1754 CircleF
3826 1754 CircleF
3923 1754 CircleF
4019 1754 CircleF
4115 1754 CircleF
4211 1754 CircleF
4307 1754 CircleF
4403 1754 CircleF
4499 1754 CircleF
4595 1754 CircleF
4691 1754 CircleF
4787 1754 CircleF
4883 1754 CircleF
4979 1732 CircleF
5075 1732 CircleF
5171 1732 CircleF
5267 1732 CircleF
5363 1732 CircleF
5459 1709 CircleF
5555 1709 CircleF
5651 1709 CircleF
5747 1709 CircleF
5843 1709 CircleF
5939 1709 CircleF
6035 1687 CircleF
6131 1687 CircleF
6227 1687 CircleF
6323 1687 CircleF
6419 1687 CircleF
6515 1687 CircleF
6611 1687 CircleF
0.500 UP
1.000 UL
LTb
LCb setrgbcolor
[] 0 setdash
0.00 0.49 0.68 C 946 3742 M
96 -335 V
96 -491 V
96 -157 V
96 -67 V
96 -111 V
96 -90 V
96 -89 V
96 -22 V
96 -23 V
96 -45 V
96 -44 V
96 0 V
96 0 V
96 -23 V
96 0 V
96 -111 V
96 0 V
96 0 V
96 0 V
96 0 V
96 0 V
96 0 V
96 -23 V
96 0 V
96 0 V
96 0 V
96 0 V
96 -22 V
96 0 V
96 0 V
97 0 V
96 -22 V
96 0 V
96 0 V
96 0 V
96 0 V
96 0 V
96 0 V
96 0 V
96 0 V
96 0 V
96 0 V
96 -67 V
96 0 V
96 0 V
96 0 V
96 0 V
96 -23 V
96 0 V
96 0 V
96 0 V
96 0 V
96 0 V
96 0 V
96 0 V
96 0 V
96 0 V
96 0 V
96 0 V
946 3742 CircleF
1042 3407 CircleF
1138 2916 CircleF
1234 2759 CircleF
1330 2692 CircleF
1426 2581 CircleF
1522 2491 CircleF
1618 2402 CircleF
1714 2380 CircleF
1810 2357 CircleF
1906 2312 CircleF
2002 2268 CircleF
2098 2268 CircleF
2194 2268 CircleF
2290 2245 CircleF
2386 2245 CircleF
2482 2134 CircleF
2578 2134 CircleF
2674 2134 CircleF
2770 2134 CircleF
2866 2134 CircleF
2962 2134 CircleF
3058 2134 CircleF
3154 2111 CircleF
3250 2111 CircleF
3346 2111 CircleF
3442 2111 CircleF
3538 2111 CircleF
3634 2089 CircleF
3730 2089 CircleF
3826 2089 CircleF
3923 2089 CircleF
4019 2067 CircleF
4115 2067 CircleF
4211 2067 CircleF
4307 2067 CircleF
4403 2067 CircleF
4499 2067 CircleF
4595 2067 CircleF
4691 2067 CircleF
4787 2067 CircleF
4883 2067 CircleF
4979 2067 CircleF
5075 2000 CircleF
5171 2000 CircleF
5267 2000 CircleF
5363 2000 CircleF
5459 2000 CircleF
5555 1977 CircleF
5651 1977 CircleF
5747 1977 CircleF
5843 1977 CircleF
5939 1977 CircleF
6035 1977 CircleF
6131 1977 CircleF
6227 1977 CircleF
6323 1977 CircleF
6419 1977 CircleF
6515 1977 CircleF
6611 1977 CircleF
0.500 UP
1.000 UL
LTb
LCb setrgbcolor
[] 0 setdash
0.00 0.60 0.68 C 946 3742 M
96 -67 V
96 -335 V
96 -156 V
96 -112 V
96 -89 V
96 -67 V
96 -23 V
96 -44 V
96 -45 V
96 -67 V
96 0 V
96 0 V
96 0 V
96 -45 V
96 0 V
96 0 V
96 -22 V
96 0 V
96 0 V
96 -22 V
96 -45 V
96 -22 V
96 -23 V
96 0 V
96 0 V
96 0 V
96 -22 V
96 0 V
96 0 V
96 0 V
97 -45 V
96 0 V
96 -22 V
96 0 V
96 0 V
96 0 V
96 0 V
96 0 V
96 0 V
96 0 V
96 -22 V
96 0 V
96 0 V
96 0 V
96 -23 V
96 0 V
96 0 V
96 0 V
96 0 V
96 0 V
96 0 V
96 0 V
96 0 V
96 0 V
96 -22 V
96 0 V
96 -22 V
96 0 V
96 0 V
946 3742 CircleF
1042 3675 CircleF
1138 3340 CircleF
1234 3184 CircleF
1330 3072 CircleF
1426 2983 CircleF
1522 2916 CircleF
1618 2893 CircleF
1714 2849 CircleF
1810 2804 CircleF
1906 2737 CircleF
2002 2737 CircleF
2098 2737 CircleF
2194 2737 CircleF
2290 2692 CircleF
2386 2692 CircleF
2482 2692 CircleF
2578 2670 CircleF
2674 2670 CircleF
2770 2670 CircleF
2866 2648 CircleF
2962 2603 CircleF
3058 2581 CircleF
3154 2558 CircleF
3250 2558 CircleF
3346 2558 CircleF
3442 2558 CircleF
3538 2536 CircleF
3634 2536 CircleF
3730 2536 CircleF
3826 2536 CircleF
3923 2491 CircleF
4019 2491 CircleF
4115 2469 CircleF
4211 2469 CircleF
4307 2469 CircleF
4403 2469 CircleF
4499 2469 CircleF
4595 2469 CircleF
4691 2469 CircleF
4787 2469 CircleF
4883 2447 CircleF
4979 2447 CircleF
5075 2447 CircleF
5171 2447 CircleF
5267 2424 CircleF
5363 2424 CircleF
5459 2424 CircleF
5555 2424 CircleF
5651 2424 CircleF
5747 2424 CircleF
5843 2424 CircleF
5939 2424 CircleF
6035 2424 CircleF
6131 2424 CircleF
6227 2402 CircleF
6323 2402 CircleF
6419 2380 CircleF
6515 2380 CircleF
6611 2380 CircleF
0.500 UP
1.000 UL
LTb
LCb setrgbcolor
[] 0 setdash
0.00 0.68 0.64 C 946 3742 M
96 -67 V
96 -156 V
96 -67 V
96 -67 V
96 -112 V
96 -45 V
96 0 V
96 0 V
96 -44 V
96 -23 V
96 0 V
96 -22 V
96 -22 V
96 0 V
96 -23 V
96 -44 V
96 -23 V
96 0 V
96 -44 V
96 0 V
96 0 V
96 -23 V
96 -22 V
96 0 V
96 0 V
96 0 V
96 0 V
96 0 V
96 0 V
96 0 V
97 -22 V
96 -45 V
96 0 V
96 0 V
96 0 V
96 0 V
96 0 V
96 0 V
96 0 V
96 0 V
96 0 V
96 -22 V
96 -23 V
96 0 V
96 0 V
96 0 V
96 0 V
96 0 V
96 0 V
96 0 V
96 0 V
96 0 V
96 0 V
96 0 V
96 0 V
96 -22 V
96 0 V
96 0 V
96 0 V
946 3742 CircleF
1042 3675 CircleF
1138 3519 CircleF
1234 3452 CircleF
1330 3385 CircleF
1426 3273 CircleF
1522 3228 CircleF
1618 3228 CircleF
1714 3228 CircleF
1810 3184 CircleF
1906 3161 CircleF
2002 3161 CircleF
2098 3139 CircleF
2194 3117 CircleF
2290 3117 CircleF
2386 3094 CircleF
2482 3050 CircleF
2578 3027 CircleF
2674 3027 CircleF
2770 2983 CircleF
2866 2983 CircleF
2962 2983 CircleF
3058 2960 CircleF
3154 2938 CircleF
3250 2938 CircleF
3346 2938 CircleF
3442 2938 CircleF
3538 2938 CircleF
3634 2938 CircleF
3730 2938 CircleF
3826 2938 CircleF
3923 2916 CircleF
4019 2871 CircleF
4115 2871 CircleF
4211 2871 CircleF
4307 2871 CircleF
4403 2871 CircleF
4499 2871 CircleF
4595 2871 CircleF
4691 2871 CircleF
4787 2871 CircleF
4883 2871 CircleF
4979 2849 CircleF
5075 2826 CircleF
5171 2826 CircleF
5267 2826 CircleF
5363 2826 CircleF
5459 2826 CircleF
5555 2826 CircleF
5651 2826 CircleF
5747 2826 CircleF
5843 2826 CircleF
5939 2826 CircleF
6035 2826 CircleF
6131 2826 CircleF
6227 2826 CircleF
6323 2804 CircleF
6419 2804 CircleF
6515 2804 CircleF
6611 2804 CircleF
0.500 UP
1.000 UL
LTb
LCb setrgbcolor
[] 0 setdash
0.00 0.68 0.53 C 946 3742 M
96 -22 V
96 -45 V
96 -67 V
96 0 V
96 0 V
96 -22 V
96 -22 V
96 0 V
96 -45 V
96 0 V
96 0 V
96 0 V
96 -22 V
96 0 V
96 0 V
96 -23 V
96 -22 V
96 0 V
96 -23 V
96 0 V
96 0 V
96 -22 V
96 -22 V
96 0 V
96 0 V
96 0 V
96 0 V
96 0 V
96 -23 V
96 0 V
97 0 V
96 0 V
96 0 V
96 -22 V
96 0 V
96 0 V
96 0 V
96 0 V
96 0 V
96 0 V
96 0 V
96 0 V
96 0 V
96 0 V
96 0 V
96 0 V
96 0 V
96 0 V
96 0 V
96 0 V
96 -22 V
96 0 V
96 -23 V
96 0 V
96 0 V
96 0 V
96 0 V
96 0 V
96 0 V
946 3742 CircleF
1042 3720 CircleF
1138 3675 CircleF
1234 3608 CircleF
1330 3608 CircleF
1426 3608 CircleF
1522 3586 CircleF
1618 3564 CircleF
1714 3564 CircleF
1810 3519 CircleF
1906 3519 CircleF
2002 3519 CircleF
2098 3519 CircleF
2194 3497 CircleF
2290 3497 CircleF
2386 3497 CircleF
2482 3474 CircleF
2578 3452 CircleF
2674 3452 CircleF
2770 3429 CircleF
2866 3429 CircleF
2962 3429 CircleF
3058 3407 CircleF
3154 3385 CircleF
3250 3385 CircleF
3346 3385 CircleF
3442 3385 CircleF
3538 3385 CircleF
3634 3385 CircleF
3730 3362 CircleF
3826 3362 CircleF
3923 3362 CircleF
4019 3362 CircleF
4115 3362 CircleF
4211 3340 CircleF
4307 3340 CircleF
4403 3340 CircleF
4499 3340 CircleF
4595 3340 CircleF
4691 3340 CircleF
4787 3340 CircleF
4883 3340 CircleF
4979 3340 CircleF
5075 3340 CircleF
5171 3340 CircleF
5267 3340 CircleF
5363 3340 CircleF
5459 3340 CircleF
5555 3340 CircleF
5651 3340 CircleF
5747 3340 CircleF
5843 3318 CircleF
5939 3318 CircleF
6035 3295 CircleF
6131 3295 CircleF
6227 3295 CircleF
6323 3295 CircleF
6419 3295 CircleF
6515 3295 CircleF
6611 3295 CircleF
0.500 UP
1.000 UL
LTb
LCb setrgbcolor
[] 0 setdash
0.00 0.68 0.42 C 946 3742 M
96 0 V
96 0 V
96 0 V
96 0 V
96 -22 V
96 0 V
96 0 V
96 0 V
96 0 V
96 0 V
96 0 V
96 0 V
96 0 V
96 0 V
96 0 V
96 0 V
96 0 V
96 0 V
96 0 V
96 0 V
96 0 V
96 0 V
96 -22 V
96 0 V
96 0 V
96 0 V
96 0 V
96 0 V
96 0 V
96 0 V
97 0 V
96 0 V
96 0 V
96 0 V
96 0 V
96 0 V
96 0 V
96 0 V
96 0 V
96 0 V
96 -23 V
96 0 V
96 0 V
96 0 V
96 0 V
96 0 V
96 0 V
96 0 V
96 0 V
96 0 V
96 0 V
96 0 V
96 0 V
96 0 V
96 0 V
96 0 V
96 0 V
96 0 V
96 0 V
946 3742 CircleF
1042 3742 CircleF
1138 3742 CircleF
1234 3742 CircleF
1330 3742 CircleF
1426 3720 CircleF
1522 3720 CircleF
1618 3720 CircleF
1714 3720 CircleF
1810 3720 CircleF
1906 3720 CircleF
2002 3720 CircleF
2098 3720 CircleF
2194 3720 CircleF
2290 3720 CircleF
2386 3720 CircleF
2482 3720 CircleF
2578 3720 CircleF
2674 3720 CircleF
2770 3720 CircleF
2866 3720 CircleF
2962 3720 CircleF
3058 3720 CircleF
3154 3698 CircleF
3250 3698 CircleF
3346 3698 CircleF
3442 3698 CircleF
3538 3698 CircleF
3634 3698 CircleF
3730 3698 CircleF
3826 3698 CircleF
3923 3698 CircleF
4019 3698 CircleF
4115 3698 CircleF
4211 3698 CircleF
4307 3698 CircleF
4403 3698 CircleF
4499 3698 CircleF
4595 3698 CircleF
4691 3698 CircleF
4787 3698 CircleF
4883 3675 CircleF
4979 3675 CircleF
5075 3675 CircleF
5171 3675 CircleF
5267 3675 CircleF
5363 3675 CircleF
5459 3675 CircleF
5555 3675 CircleF
5651 3675 CircleF
5747 3675 CircleF
5843 3675 CircleF
5939 3675 CircleF
6035 3675 CircleF
6131 3675 CircleF
6227 3675 CircleF
6323 3675 CircleF
6419 3675 CircleF
6515 3675 CircleF
6611 3675 CircleF
2.000 UL
LTb
LCb setrgbcolor
[] 0 setdash
1.000 UL
LTb
946 4055 N
946 704 L
5857 0 V
0 3351 V
-5857 0 V
Z stroke
1.000 UP
1.000 UL
LTb
stroke
grestore
end
showpage
%%Trailer
