0.190423
0.34667
0.304466
0.320451
0.175984
0.143797
0.100218
0.307115
0.326394
0.14556
0.402489
0.167096
0.145208
0.0469626
0.262129
0.204622
0.11585
0.149549
0.156346
0.198146
0.273979
0.197688
0.372274
0.178531
0.242408
0.270198
0.122709
0.238649
0.219682
0.180715
0.165864
0.191738
0.151821
0.701279
0.297396
0.123761
0.185546
0.165045
0.210466
0.225651
0.0738201
0.192243
0.298481
0.185877
0.167339
0.217497
0.10628
0.139908
0.396131
0.208584
0.223612
0.293811
0.379965
0.205605
0.24512
0.249726
0.166367
0.165906
0.167161
0.159207
0.275681
0.218408
0.190681
0.298879
0.227127
0.190038
0.205935
0.135459
0.117944
0.136567
0.327591
0.191229
0.0891737
0.253988
0.205774
0.22362
0.243955
0.244158
0.185634
0.380636
0.0611997
0.48507
0.234683
0.216044
0.179131
0.240121
0.27443
0.550381
0.282018
0.275675
0.214437
0.190218
0.386934
0.130073
0.181566
0.139868
0.0713255
0.237242
0.133194
0.378547
0.105937
0.125678
0.202888
0.219731
0.21943
0.443592
0.140014
0.255174
0.316252
0.136863
0.290928
0.265969
0.292681
0.240072
0.180865
0.287159
0.140706
0.379758
0.207001
0.161621
0.280181
0.235482
0.162698
0.139428
0.152271
0.297749
0.356972
0.46983
0.256333
0.316906
0.281529
0.10099
0.174853
0.12074
0.391377
0.148043
0.16869
0.373466
0.293805
0.247853
0.330133
0.167465
