0.13144
0.296419
0.1044
0.378935
0.274814
0.252189
0.269429
0.245356
0.205431
0.259723
0.18572
0.389947
0.232097
0.285911
0.243625
0.130681
0.267752
0.252225
0.175243
0.14775
0.160467
0.208166
0.221463
0.0859305
0.17106
0.204623
0.102259
0.13761
0.22212
0.259645
0.185822
0.357672
0.282618
0.128206
0.274043
0.243521
0.251038
0.331726
0.180245
0.37803
0.224969
0.336413
0.402603
0.197551
0.403453
0.28672
0.267265
0.229816
0.123756
0.138935
0.152129
0.184017
0.308811
0.228157
0.146516
0.37077
0.323328
0.125943
0.303743
0.308984
0.262808
0.333023
0.117328
0.267361
0.197688
0.196364
0.230128
0.0637188
0.159162
0.3292
0.393892
0.343287
0.267193
0.203956
0.174892
0.163408
0.21372
0.181306
0.221989
0.17622
0.174732
0.195231
0.200844
