0.332736
0.142571
0.771288
0.194006
0.384881
0.185621
0.678042
0.587065
0.24793
0.82035
0.649509
0.180696
0.534418
0.117075
0.3819
0.146279
0.368341
0.29036
0.45397
0.276216
0.700106
0.320012
0.161255
0.289115
0.230422
0.468423
0.189317
0.862491
0.203578
0.124043
1.03108
0.172511
0.909621
0.594582
0.401248
0.111273
0.186483
0.250851
0.744388
0.754422
0.153551
0.622629
0.531883
0.133015
0.0755338
0.407371
0.218094
0.294958
0.359758
0.197322
0.754321
0.796432
0.650978
0.284502
0.365981
0.262319
0.172777
0.521495
0.784068
0.23044
0.571555
0.739834
0.706736
0.268699
0.236852
0.209932
0.502101
1.07454
0.603957
0.15499
0.624275
0.125405
1.11042
0.291905
0.109258
0.255644
0.143805
0.24349
1.0287
0.179449
0.348379
0.320398
0.505835
0.74869
0.410582
0.417005
0.206715
1.10855
0.639961
0.457467
0.149238
0.99574
0.29588
0.649912
0.439334
0.626766
0.264342
0.151425
0.381607
0.324145
0.309779
0.165851
0.49612
0.253601
0.397281
0.205538
0.849237
0.46682
0.281792
0.220271
0.785932
0.185625
0.684519
0.813363
0.275415
0.19437
0.181509
0.326599
0.385067
0.21994
0.853183
0.256634
0.731148
0.137866
0.269882
0.30602
0.399741
0.269673
0.182811
0.252894
0.208006
0.160931
0.24625
0.218404
0.630984
0.583342
0.190767
0.404508
0.994732
0.147058
0.412118
0.604575
0.43683
0.358432
0.772798
1.05188
0.567271
0.0632617
0.315946
0.270134
0.158657
0.481569
0.205945
0.204816
0.2291
0.734865
0.201136
0.365121
0.256075
0.636547
0.292863
0.134552
0.176219
0.161457
0.353406
0.245581
0.261509
0.591474
0.152328
0.483283
0.766918
0.360645
0.365782
0.566864
0.144075
1.00614
0.320278
0.354275
0.121529
0.281621
0.202185
1.16479
0.456207
0.178084
0.366704
0.47274
0.482212
0.656125
0.167726
0.307856
0.604083
0.155419
0.369498
1.27147
0.291463
0.596781
0.178241
0.102427
0.187462
0.503354
0.721212
0.29256
0.19501
0.140109
0.255788
0.593944
0.891552
0.58094
0.603074
0.308321
0.565589
0.337412
0.330698
0.155579
0.273292
0.645319
0.0632347
