0.364215
0.158733
0.797765
0.320527
1.15093
0.122145
0.174486
0.499186
0.457659
0.812617
0.297038
0.229368
0.377678
0.28259
0.332184
0.186062
0.241064
0.307837
0.656771
0.34743
0.400763
0.200615
0.223209
0.500518
0.294584
0.284778
0.701922
0.398998
0.114381
0.247653
0.239163
0.354223
0.277292
0.404107
0.420291
0.237246
0.22454
0.466639
0.274415
0.143331
0.281915
0.402204
0.154435
0.116287
0.628782
0.228941
0.517707
0.520061
0.229731
0.64275
0.203157
0.366004
0.169467
0.329029
0.557177
0.485228
0.186152
0.250221
0.270074
0.0798923
0.683387
0.212721
0.252269
0.129128
0.209093
0.242069
0.316248
0.135966
0.247673
0.242807
0.683628
0.205409
0.274897
0.407109
0.114221
0.537775
0.254544
0.658678
0.114868
0.461022
0.860708
0.417653
0.314693
0.103784
0.44036
0.107276
0.590089
0.0918784
0.257381
0.401341
0.61099
0.245379
0.290044
0.349518
0.214276
0.136941
0.213931
0.408405
0.389179
0.270755
0.178014
0.556253
0.666076
0.307285
0.177525
0.265572
0.344723
0.387831
1.49242
0.134468
0.991095
0.355495
0.27649
0.16187
0.330594
0.250505
0.109051
0.251605
0.289695
0.167915
0.613277
0.456107
0.389895
0.133262
0.190101
0.25291
0.0513635
0.234867
0.219525
0.224348
0.343947
0.418964
0.257182
0.499483
0.220215
0.190385
0.226114
0.461455
0.428131
0.356598
0.232819
0.219211
0.560676
0.429505
0.23639
0.211663
0.190619
0.638515
0.249437
0.449202
0.444734
0.176264
0.339844
0.325582
0.315267
0.207932
0.302518
0.437545
0.1097
0.152798
0.784469
0.406134
0.361024
0.337559
0.321997
0.250748
0.327168
0.180528
0.181652
0.249318
0.106772
0.134656
0.50985
0.421953
0.157966
0.249351
0.192955
0.180606
0.108566
0.17272
0.251187
0.399161
0.325619
0.144892
0.18976
0.0978181
0.451389
0.482518
0.181014
0.341974
0.261111
0.444164
0.314724
0.787174
0.337617
0.294149
