0.304331
0.238589
0.914965
0.263947
0.362082
0.261307
0.358313
0.159969
0.654142
0.38873
0.281962
0.0736224
0.387136
0.0431287
0.596596
0.377785
0.193705
0.175191
0.33511
0.21912
0.824838
0.332421
0.51166
0.258407
0.0941412
0.315025
0.444081
0.207512
0.0848367
0.632654
0.266066
0.496911
0.168567
0.568678
0.441045
0.415662
0.621857
0.349048
0.290607
0.407921
0.0606461
0.198922
0.136354
0.299024
0.216095
1.01145
0.13459
0.151648
0.383962
0.26452
0.358806
0.200036
0.211022
0.42232
0.319788
0.229975
0.220667
0.158955
0.319597
0.271429
0.334304
0.240066
0.482595
0.729791
0.240947
0.0873626
0.144254
0.258598
0.464904
0.232474
0.430386
0.350916
0.239861
0.150625
0.146052
0.194485
0.590046
0.201596
0.116675
0.292604
0.291017
0.131212
0.219838
0.223335
0.471074
0.699498
0.167547
0.365707
0.221694
0.150683
0.166779
0.229734
0.431194
0.756745
0.345698
0.340161
0.484132
0.329948
0.246324
0.173093
0.708022
0.284114
0.158577
0.454679
0.141212
0.168356
0.608012
0.0945283
0.336806
0.570694
0.337417
0.446047
0.436109
0.393888
0.111453
0.154113
0.209595
0.177897
0.406158
0.56782
0.336235
0.331729
0.580192
0.167769
0.406142
0.23903
0.818784
0.394359
0.838862
0.174332
0.472814
0.393564
0.361269
0.182649
0.228603
0.330789
0.220984
0.104169
0.564637
0.189239
0.137073
0.145967
0.206763
0.300756
0.409389
0.115967
0.191488
0.234372
0.196363
0.333097
0.32267
0.117349
0.923314
0.233963
0.655591
0.262809
0.492703
0.230025
0.38952
0.160149
0.395048
0.119287
0.184039
0.503848
0.408555
0.263039
0.711174
0.869532
0.482421
0.182741
0.257032
0.221886
0.0821146
0.920497
0.101659
0.190417
0.623689
0.475852
0.161424
0.351378
1.08339
0.143947
0.18129
0.261795
0.199181
0.160424
0.323926
0.377368
0.0891588
0.578416
0.295558
0.195288
0.280596
0.36421
0.591773
0.360142
0.221704
0.138693
0.36966
